        #100373 +(179)- [X]

        * norn changes topic to 'scorp on marriage: [06:08] <Scorpy>
        It's like free falling off a cliff, it's fun and exciting for
        a while and then you hit the ground and die or break most of
        your bones in your body.'

