        #106560 +(373)- [X]

        (+Silver) man never have porn and pics of people from irc in
        the same folder
        (+nixon) you accidently opened nhm's picture while doing the
        dirty
        (+nixon) didnt you
        (+Silver) it was yours
        (@CH) I'd just keep going
        (+Silver) CH: i didnt say i stopped

