        #107359 +(394)- [X]

        ||RoGuE||: yesterday, my sister came to me and asked me where
        were my parents, and she smelled like beer
        ||RoGuE||: and i said... Minni, by the smell of your breath i
        can tell you have been drinking
        ||RoGuE||: and then she said... well, by the smell of your
        breath i can tell you have been sucking cock
        [StOrM]: what did you do rogue?
        ||RoGuE||: i brushed my teeth ¬_¬

