        #10805 +(267)- [X]

        dsp/#nz2600 boggles at chick logic , "i know you're upset with
        me, and that
                  upsets me, which is why i'm bitchy at you"
        -dsp, nz2600

