        #108596 +(167)- [X]

        --> Globulus (~XXXXXX@XXXXXX.XXXXXXcpe.net.cable.rogers.com)
        has joined #c
        * Globulus why they ban me from #china all I say is "ME
        CHINESE ME MAKE JOKE ME PUT PEE PEE IN YOUR COKE!!!!!!!!!!!!!!
        "
        --- qball sets ban on *!*@*.cpe.net.cable.rogers.com

