        #109624 +(695)- [X]

        <uTi|Veridian> my HLTV tops out at about 30 people - then lags
        like your mom
        <cyde> so tell me... if i used my mom in conjunction with your
        server... could we top 60?
        <uTi|Veridian> can your mom handle 30 teenage boys?
        <cyde> the question is....can 30 teenage boys....handle my
        mom?

