        #11003 +(325)- [X]

        <Journey> I get, from the reactions of the world to our
        policies, that it doesn't matter what the hell we do--we're
        always the bad guy. So fuck everybody else.
        <RedFox> You've been a chanop before, haven't you?

