        #11032 +(240)- [X]

        <jablowme> why do some people associate nerds with small
        cocks?
        <Jonny-TD> so girls wont like nerds.....duh
        <jablowme> those fucking fags.

