        #11085 +(418)- [X]

        <MissTika> how have you been?
        <Sage> Good, good. And you?
        <MissTika> oksy I guess, had a falling out with two of my "
        best" friends but other then that heh
        <Ne0_Rat> Tika has been arguing with her boobs again.

