        #11095 +(306)- [X]

        <herk> wait'll i put out my hip hop album
        <chrissyb0> i can see it now
        <chrissyb0> "Im herschel i get all the bitches i want, i can
        make a
        webpage with any font

