        #11188 +(-21)- [X]

        knickslover3333: yea reading this was the biggest waste of
        time in my entire life, this overachieving sack of shit makes
        me want to vomit blood all over his face

