        #11251 +(204)- [X]

        <Zombie> will you beat up Red Sky for me?
        <Ryco> no =P
        <Zombie> He almost cost me my JOB
        <kesu-cho> what did RS do
        <kesu-cho> that almost cost you your job?
        <Zombie> He told my Boss I wanted to have sex with him

