        #11350 +(331)- [X]

        <davis> you're site reminds me of a commercial
        <MyBodyIs4Sale> which commercial?
        <davis> the one where the girl dumps the guy because of his
        lack of substance on his web page

