        #11888 +(210)- [X]

        <sparks> got the house to myself for the evening
        <Robert> bbl
        <Robert> hehe enjoy ;)
        <sparks> guess I'll invite a bunch of friends over and have a
        party and play rap music
        <sparks> by which I mean I'll order a pizza and nair my legs

