        #11924 +(235)- [X]

        <@tag> cant wait for zero state devices :)
        <@tag> no wires, no external power
        <@tag> just IS
        <@Syfoon> tag, by then, we'll be 4ft high, grey, abducting
        stupid, fat hicks and shoving probes up their asses

