        #120095 +(3280)- [X]

        <Naudiz> my IQ is high enough that I can do anything I want
        <Naudiz> college means nothing
        <netbsd_> What is this almighty IQ you have and what
        self-scoring IQ test gave you the idea you have it?
        <Naudiz> I'm a Mensa member .. I allready mentioned this.
        <netbsd_> So you're in the top two percent of the population?
        <netbsd_> This is me being impressed.
        <Naudiz> no actually ... only 1 in 50 people qualify to be in
        Mensa

