        #120413 +(329)- [X]

        <Calaveron> I'm so sick and tired of gay people on message
        boards adding to their signatures
        <Calaveron> "PROUD TO BE GAY"
        <Calaveron> And fruity colors
        <Calaveron> I mean
        <Calaveron> WTF?
        <Calaveron> Fine, you can be gay, I don't care
        <mog> i love peer
        <mog> it pwned cass good
        <Calaveron> Don't be flaunting it, then it's annoying and you
        get all bitchy when someone complains and thinks he's a
        homophobe
        * mog Random Mp3 - Queen - Killer Queen.mp3 - Size: 3.45MB -
        Length: 3mins 2secs
        <Calaveron> I'm straight
        <Calaveron> I don't go adding pirate flags to my signatures
        <Calaveron> "PROUD TO NOT SUCK COCKS"
        <mog> lol
        * cass has joined #herpes
        * ChanServ sets mode: +o cass
        <mog> fuck
        <mog> spoke too soon
        <draik]> wb
        <Calaveron> pirate flags with boobies and skull and crossbones
        and all that
        * mog is now known as asspirate
        <asspirate> YAR
        <draik]> rofl
        <asspirate> SHIVER ME COLON AND BLOW MY LOAD
        <asspirate> THERE BE TREASURE IN THAT BOYS ASS
        <draik]> lmao
        <asspirate> yar
        <asspirate> me n firs mate willy
        <asspirate> thar be dragons to, yar
        <asspirate> flamin dragons
        <asspirate> with cacks as long as tha sea
        <asspirate> yar
        <asspirate> got' dig deep fer ye gold
        <asspirate> yar

