        #122817 +(775)- [X]

        <Vino> I'd jack off in the middle of a circular buttsex chain
        for a klondike bar
        <Brother_Shinobi> ...
        <Tempyst> ...
        <Keyse|2> ...
        <Muffdan> ...

