        #124657 +(156)- [X]

        <H|G> wo da hells dat
        <MoonHawk> whats balls?
        <Marcus`> you don't know what balls are?
        <H|G> no
        <MoonHawk> Marcus`  no i dont
        <H|G> we dont have it here
        <Marcus`> you guys don't have balls in france?
        <H|G> i guess not
        <_PhAnTaSm> I think they only have bawls in north america.

