        #124884 +(1736)- [X]

        <Locke|Away> Listen, this is purely theoretical, but is it
        dangerous to get a cat high?
        <Boko> only one way to find out o_O
        <Locke|Away> Like, not making him eat it or anything, but
        let's say there is a cat around the smoke.
        <Locke|Away> That's not going to hurt the cat or anything,
        right?
        <Odyslep> don't think so
        <Odyslep> unless it ODs
        <Odyslep> prolly give it a cough too
        <Locke|Away> Let's say it hasn't coughed but it keeps trying
        to jump on top of the TV set and it keeps missing. 
        <Locke|Away> Would that sort of cat be in any trouble?

