        #125404 +(779)- [X]

        Lord Almighty 3: yo
        onkeybutt87: can you make a rock that you can't lift?
        onkeybutt87: because if you're all-powerful... you can make
        something unliftable
        onkeybutt87: but if you're all-powerful, you can also lift it
        onkeybutt87: which wouldn't make it unliftable
        Lord Almighty 3: ...
        Lord Almighty 3: shit

