        #128114 +(6359)- [X]

        <Firefly> Time for my prayers:
        <Firefly> Our Father, who 0wnz heaven, j00 r0ck!
        <Firefly> May all 0ur base someday be belong to you!
        <Firefly> May j00 0wn earth just like j00 0wn heaven.
        <Firefly> Give us this day our warez, mp3z, and pr0n through a
        phat pipe.
        <Firefly> And cut us some slack when we act like n00b lamerz,
        just as we teach n00bz when they act lame on us.
        <Firefly> Please don't give us root access on some poor d00d'z
        box when we're too pissed off to think about what's right and
        wrong, and if you could keep the fbi off our backs, we'd
        appreciate it.
        <Firefly> For j00 0wn r00t on all our b0x3s 4ever and ever,
        4m3n.

