        #1289 +(1591)- [X]

        <Wazm> I spent the entire day being normal, now that I'm home,
        I just want to duct tape fuzzy green pipe cleaners to my head,
        turn on the strobe, take off my clothes, and IRC.

