        #13065 +(839)- [X]

        <Rice_Boy> look at the sys requirements for interdev:
        www.free-trial-sex.com
        <Rice_Boy> er... http://msdn.microsoft.com/vinterdev/prodinfo/
        sysreq.asp
        <iheartsql> HAHAHAHAHA
        <iheartsql> HAHAHAHAHA
        <iheartsql> PRON HEAD
        <Rice_Boy> my bad
        <Rice_Boy> damn

