        #13107 +(15)- [X]

        <Dr_Pain_> i need help here about a cble modem to nuke theres
        a girl who has take my nick and put it on a child porn chan
        and im unable to nuke that bitch shes on cable im in winshit

