        #1352 +(1028)- [X]

        <CyberThor> HIDE THE SHIT, SHARKEY'S HERE!
        * Silkenray throws a blanket over Thor
        * CyberThor is soothed by the calming, womb-like combination
        of warm and dark

