        #13599 +(799)- [X]

        <Sumez> Jar: I can't believe you don't know what a Skoda is
        <Aximili> Sumez: I can't believe you don't know what a
        Hasemalphaginnojinglanaporphomism is
        <Sumez> Axi: I do, oh I do
        <Aximili> What is it, then?
        <Sumez> Axi: a reversed contradicting metamorph phrased as an
        anagram
        <Aximili> Sumez: Damn.. you did know..

