        #136569 +(1122)- [X]

        <+Starvin`Marvin> over here in my country , im a real sex
        object
        <+RonaldMcD|afk> looool
        <+Starvin`Marvin> whenever i ask girls for sex ... they object
        <+Bastaard> LOL!

