        #1367 +(283)- [X]

        (_dev) you go get what you want for supper
        (_dev) and i will cook it
        (Ashley) wings!
        (TwinWorkn) Ashley: with dry weave?
        (TwinWorkn) for added panty protection?

