        #13727 +(185)- [X]

        <Kimmo> I don´t know you
        <Kimmo> Are you good at something?
        <Otto[NS]> Yes
        <Kimmo> What?
        <Otto[NS]> Dames
        <Otto[NS]> *Games

