        #137437 +(1603)- [X]

        <@parasyte> I went straight towards my room where my nice
        large full size bed I had since I was 5 years old awaited me.
        I opened the door and...
        <@parasyte> ... there is my sister, riding her fat boyfriend,
        fucking his brains out.
        <@parasyte> My first thought was, "Wow, she had perky tits".
        My second thought was, "Wow, so does he",

