        #138514 +(46)- [X]

        <Virgin_girl> there is a new killer virus.... i can feel
        it.... scan ur discs people!
        <Virgin_girl> i think im infected... im feeling like that
        <Virgin_girl> norton knows it is inefcted
        <Virgin_girl> it does not tell the truth

