        #13868 +(43)- [X]

        <bpb> let's all play a game shall we?
        <bpb> ok, everybody who has a line that is probably tapped
        raise your hand
        * bpb raises his hand
        <bpb> now, raise your hand if you think iip is completely
        secure ;)

