        #138632 +(-32)- [X]

        Crazzeh Timmeh: dude
        Crazzeh Timmeh: i just found out
        Crazzeh Timmeh: im so sorry
        Crazzeh Timmeh: i had no idea you were gay
        KashJC: hahahaha
        KashJC: are u that bored?
        Crazzeh Timmeh: could you tell?
        KashJC: yes
        KashJC: lol
        Crazzeh Timmeh: wanna fuck
        Crazzeh Timmeh: ?
        Crazzeh Timmeh: you know, since ur gay and all
        KashJC: nah, not rite now...kinda busy
        Crazzeh Timmeh: later?
        KashJC: aight, when im done with this stuff
        Crazzeh Timmeh: kk
        Crazzeh Timmeh: who is stuff? never heard of him
        KashJC: dont ask, we're busy
        Crazzeh Timmeh: bastard, you're cheating on me now!
        KashJC: hahah
        KashJC: sorrie daddy
        Crazzeh Timmeh: i knew you were a dirty whore

