        #139462 +(754)- [X]

        <Taiken> I had this dream once...
        <Taiken> Where my penis grew teeth and attacked me.
        <woosh> dude
        <woosh> Your penis is cool.
        <woosh> I want Taiken's penis
        <Kyle> ..
        <woosh> That sounded so wrong.
        <Kyle> Yeah.

