        #14022 +(-27)- [X]

        <Hempy> i said the funniest thing today
        <Hempy> iwas quite impressed by my own wit
        <Hempy> my mum was bitching to me about how i smoke to much
        weed and how i have no motication and i go
        <Hempy> "fuck... i have motivation... do you think its easy
        getting up to go to the tinny house in the morning?~"
        <Hempy> thats what i said
        <Hempy> and it was funny
        <rhythm> guess u had 2 be there
        <rhythm> or not.

