        #14441 +(156)- [X]

        *** Meeko has joined #Animorphs
        <Meeko> ennnik!
        <Meeko> I've been pantsed while commando!
        <Meeko> "What an interesting turn of events."  "THEY'RE FLESH
        COLORED UNDERWEAR."  "God, I wish."
        <Meeko> So now I'm holed up inside for the rest of today,
        nurturing my wounded pride.

