        #14622 +(518)- [X]

        <JessiA> Listed as a previous job on a resume:  Domestic
        Goddess      <-  Me
        <Wilik> so you were a house wife?
        <JessiA> No
        <JessiA> But I take care of my house a lot
        <Wilik> so you were a house wife minus the wife part
        <JessiA> basically
        <Courtland> lol
        <Courtland> so you are a house?
        <Wilik> I guess that makes you a house

