        #14666 +(505)- [X]

        [02:17:43]   +wysiwyg sings "your no good for me i dont need
        nobody, dont need no one thats no good for me"
        [+wysiwyg] and if ne1 points out it should be "you're" ill
        kill em
        [@Miz] i'll
        +wysiwyg slaps Mr Pedantic with a flacid kipper
        [Sarcho] flaccid?
        [+wysiwyg] oh fuck off

