        #146650 +(425)- [X]

        <HumanHead> :/
        <HumanHead> I tried to pull a drew at Video Warehouse
        <HumanHead> <me> Do you have any job openings?
        <HumanHead> <guy> no positions are open right now
        <HumanHead> <me> that only means one thing...SOMEONE MUST DIE
        <HumanHead> *me is asked to leave

