        #150020 +(33)- [X]

        Sorcerer: I mean shit, that one time I got banned, my dog came
        on and pissed everybody off on the RPGC boards while I was in
        the shower! I swear! Honest!

