        #15183 +(532)- [X]

        <deimos> someone asked me some ungodly complex question in an
        interview once
        <deimos> it took him 5 minutes to explain it
        <rwhom> did you get it right?
        <deimos> and then they looked at me
        <deimos> and wanted a single part answer
        <deimos> so i thought for a second
        <cj_> <deimos> and i said, "potatoe".  i didn't get the job.

