        #155345 +(17)- [X]

        <ArchNemesis> ARGUMENT FROM BLINDNESS (II)
        <ArchNemesis> (1) God is love.
        <ArchNemesis> (2) Love is blind.
        <ArchNemesis> (3) Ray Charles is blind.
        <ArchNemesis> (4) Therefore, Ray Charles is God.
        <ArchNemesis> (5) Therefore, God exists.
        <sasaphrass> stevie wonder is blind, and black.... i dont
        think that makes him god....

