        #15703 +(33)- [X]

        <PetrDoubt> "Our local support is in Dallas, sir."
        <PetrDoubt> Remember, when you call Dallas, you aren't calling
        across the
          country, you're calling next door!

