        #16121 +(264)- [X]

        <zamros> when i was seven i saw a car get run over by another
        car
        <zamros> my first accident witnessing
        <zamros> and/or moster truck rally

