        #1617 +(211)- [X]

        <ground0-> as if your opinion matters, or means anything in
        this world at all
        <hypr> as if your elitest bs opinion matter, or means anything
        in this world at all
        <hypr> ;P
        <ground0-> actually it does
        <hypr> and how is that
        <ground0-> highschool/college graduate/registered voter/
        licensed driver

