        #16475 +(1041)- [X]

        <Logan> I have to say that sex ruined pornography for me. I
        discovered that women don't scream, "Fuck me you big-cocked
        cowboy!" when you touch their elbow.

