        #16713 +(27)- [X]

        <Valenthios> When we RPed that little convo with her and
        Gygus, I said "She seems to be quite beautiful, even though
        she's human."  He says "Bitches is bitches."
        <Gygus> Heeheeheeheee.....

