        #16712 +(881)- [X]

        <Deke> living with a Tobin is odd
        <Deke> so Cass started cleaning up, since she found out that
        people're
        <Deke> coming over
        <Deke> and found 2 20GB drives in the couch
        <Deke> most people find coins
        <Deke> we find disk drives

