        #167731 +(908)- [X]

        TrivBaby: QUESTION:  1992 - what did the church of england
        allow women to become?
        catman1229: men
        destinatas: priests
        destinatas: clergy
        ZaDaRoN: members
        LmRiVaRaT: sluts
        QuarkSoupXYZ: pregnanat
        LmRiVaRaT: bitches
        destinatas: queens
        LmRiVaRaT: hoes
        ZaDaRoN: divorced
        LmRiVaRaT: whores
        dbcpool: voters

