        #17129 +(320)- [X]

        <moira> o
        <AnimeFreak> my new keyboard has improved my typing skills
        <AnimeFreak> too bad other keyboards suck compared to this
        keyboard
        <moira> is it an ergonomic microsoft keyboard
        <AnimeFreak> no
        <AnimeFreak> ibm model m
        <moira> sry ergonomic is best
        <AnimeFreak> no
        <AnimeFreak> model m > *
        <jre> FUCKS SAKE, ARE THEY FORGETTING TO INSTALL SHIFT KEYS ON
        THE NEW KEYBOARDS?!?@!

