        #1771 +(99)- [X]

        <cooey> i jerked off at work in the sink in the bathroom
        yesterday
        <cooey> everytime someone came in to pay for gas, id run out
        of the bathroom with this huge buldge in the miiddle of my
        pants
        <cooey> it owned

