        #177698 +(1443)- [X]

        <Jaayy-EOC> Yeah.. I stole 5$ from Mike when I was at his
        house, but the funny thing is he doesn't know.
        <Derid-EOC> I do now, you dumbass.
        <Jaayy-EOC> Shit. When did you log on?

