        #18161 +(162)- [X]

        <tbone22> today is my housemate's bday...what should i buy
        him...he just turned 23
        <Dirge> a big fat penisdildo
        <tbone22> he's hetero
        <tbone22> (are there other kinda of dildos?)

