        #1824 +(281)- [X]

        [21:51] <Hatta> yee must be like FNTC, wants them fresh outa
        the womb!
        [21:51] <Uber`> too old for kuro
        [21:51] <Nakago> >_<
        [21:51] <britenite> what? kuro wants 'em in the womb?
        [21:51] <Nakago> ack
        [21:51] <Hatta> hmm.
        [21:51] <Hatta> how would that work.
        [21:51] <Nakago> don't ask
        [21:52] <kisama> 2 for the price of 1

