        #186807 +(932)- [X]

        <Comatosis> wow this room is empty! we have it all to
        ourselves :-p
        <Alain> yup, just you and me :-)
        * Comatosis gets naked
        <Alain> uh, my mom is sitting here next to me, i dont want her
        to think i chat with perverts
        * Comatosis put his clothes back on
        <Comatosis> sorry

