        #187498 +(568)- [X]

        taz10021: sleeeeep
        VindicateD: Writing Paaaaaper
        taz100: lol
        taz100: you're still awake?
        taz100: heh
        VindicateD: No...this is the world's smartest away message
        talking.
        VindicateD: ;)
        taz100: not if you couldn't figure out that was rhetorical
        taz100: ;-)
        VindicateD: touche

