        #189375 +(546)- [X]

        --> Colt (~Colt@*********.*******.net) has joined #lobby
        <Colt> ............................
        <Colt> ...............
        <Colt> .............
        <Colt> .
        <Alek> .......................
        <Alek> ...........
        <Alek> ..
        <Colt> ...
        <edisk> what is this, some kind of lame winamp visualization?

