        #191423 +(409)- [X]

        <Plank> there's a special halloween version of goatse! the
        image if modified so it looked like a halloween pumpkin!
        www.goatse.cx
        <Suave|Away> Bloody hell.
        <Suave|Away> And I clicked it, too.

