        #192096 +(305)- [X]

        <Agent_Mono> vote for me to be op and you will go to heaven
        <ZestyO> lol
        <ZestyO> great campaign
        <ZestyO> you work for the bush administration?
        <Seraya> Sure sounds like it.

