        #193625 +(274)- [X]

        * Kosaku has Lee raped by some random tentacles.
        * Lee dies.
        <Tash> Shit.
        <Tash> Its Rape 'o clock.
        <Kyle> ..
        <Kyle> What?
        <Tash> Oh wait.
        <Tash> I'm reading my watch wrong.

