        #1980 +(681)- [X]

        <Thom> ..spam has got funnier since I last checked. It used to
        be 'GET A 9" DICK IN DAYS!'. Now I'm getting 'GET HUGE JUICY
        TITS IN WEEKS!'
        <SenorSedo> I'd rather get huge juicy tits than some black guy
        showin up at my door

