        #20101 +(244)- [X]

        tilt: WHAT ARE YOU GONNA SAY TO HAR
        jolt: I DONT KNOW I WROTE A POEM BUT I DONT KNOW IF I SHOULD
        USE IT!!!!@! IT GOES " IM GLAD WE DIDNT EAT AT LUBY'S! CAN I
        PLEASE TOUCH YOU BOOBIES?"

