        #21002 +(323)- [X]

        <Pants> you know .. living in australia .. and being raised
        watching so much american television .. sometimes you get
        confused and think to dial 911 instead of 000 for emergencies

