        #2102 +(728)- [X]

        <LegendZ28> I remember when I was a kid and I was at my
        friends house, my friends big brother ran into the room with a
        huge turd in his hand and was like "LOOK HOW HUGE THIS IS!"

