        #217183 +(1416)- [X]

        zadijan:  CUSTOMER NOTIFICATION. As of May 2001, Viagra will
        only be available through chemists by its chemical name. So
        please ask for MYCOXAFLOPPIN. Thank you.
        zadijan:  ... OH MY GOD
        zadijan:  THAT WAS THE BEST EMAIL I EVER RECEIVED
        zadijan:  EVER

