        #2199 +(1366)- [X]

        <|Chris> i was stuck behind some car today and the license
        plate read "dick 404." my first thought was "oh shit...this
        guy must be impotent as all hell if his dick is missing."

