        #22090 +(365)- [X]

        <TrutHurts> o____o: Christ died for all and one day you will
        acknowledge this fact
        <wired> ORRRR you will die and be dead and you'll wish you
        didnt spend all your time in an IRC channel preaching

