        #22158 +(123)- [X]

        <Eclipse> at least they don't taste like yellow listerine
        <Eclipse> that stuff is horrible
        <skold> 'ear wax flavor'
        <Eclipse> that doesn't begin to describe it
        <Eclipse> it's like ear wax dissolved in a mixture of gasoline
        and urine

