        #22170 +(230)- [X]

        o0zeman: brb, need fluids.
        haq: coincidentally, I have to pee.
        haq: let's get together and have a double-blind mountain dew
        taste test
        o0zeman: haha

