        #2234 +(493)- [X]

        <DTOX> my wife says the white trash have already come up with
        a new name for Osama
        <DTOX> "Osama Bin Hidin"
        <DTOX> that's really sticking it to him
        <refugee> man, that must have took all their brain power
        <DTOX> cases upon cases of RC Cola were drank

