        #22366 +(410)- [X]

        * ClusteR- is away [log: on]
        <Icecream> What script are you using?
        <ClusteR-> huh?
        <ClusteR-> I don't use any script
        <Icecream-> So did you just type /me is away [log: on] or
        what?
        <ClusteR-> yeah...

