        #2237 +(175)- [X]

        [kisama] if you break out your penis in space
        [kisama] your suit would depressurize
        [kisama] or your body would depressurize
        [kisama] and suck out all your internal organs through the
        urethra

