        #223959 +(370)- [X]

        * Aryeh`AFK has quit IRC (Quit: [16:12] * ObnoxiousFrog
        reminds Aryeh that a girl on a gaming clan IRC chan is about
        as common as a unicorn that pisses gold and farts dreams)

