        #226350 +(1115)- [X]

        <Cas> I used to enjoy going into Best Buy back in 95, do a
        search on them for *.exe, *.bat, *.com it always came up with
        a few thousand
        <Cas> drag all of them to the startup folder
        <StarManta> ROFL
        <Cas> walk away and watch :)
        <mystic_1> rofl
        <Cas> act innocent
        <Cas> always worked for me, they never suspected a girl would
        do that :)

