        #227455 +(1439)- [X]

        <cheapo> haha, this screen appeared on my windows that said
        "time before shutdown: 60 seconds"
        <cheapo> so i turned the windows clock 2 years backwards and
        now it says "time before shutdown: 729 days" :D:D
        <cheapo> i just love windows :D

