        #22978 +(300)- [X]

        <saunafrend>: you know, next time we're in a building thats
        burning down, and someone screams "GOD PLEASE HELP US!! IF WE
        HAD A SMARTMEDIA READER WE'D ALL BE SAVED!!" you won't think
        it was such a waste of money anymore, and i'll laugh as you
        burn.

