        #23056 +(192)- [X]

        <Cricket> talk about bush then.
        <Cricket> the kind you eat, not the kind you vote for.
        <pesti> ew, no
        <pesti> no political,stuff,
        <dUb> lol
        <pesti> like, mowing the lawn?
        <dUb> I like the george michael clip
        <dUb> hihi
        <Cricket> yeah, like mowing the lawn.
        <pesti> trimming the hedge
        <dUb> chocking the snake
        <dUb> ...
        <pesti> pounding the beaver
        <dUb> spanking the monkey
        <pesti> dub, you still have a lot to learn if you think that
        is having sex with a girl

