        #23382 +(379)- [X]

        <jonathans> can you kick his ass
        <Rjx> I know karate, he knows kickboxing
        <Rjx> but if I punched him he'd break my network card
        <jonathans> nevermind then

