        #236870 +(359)- [X]

        <Bmann> its supposed to be 60 tomorrow?
        <brendando> its nice out here
        <brendando> Not that I have been outside in 2 days
        <brendando> But I'm near a window

