        #238133 +(455)- [X]

        <Gandalf> at least you arent typical of most yanks here who
        hear the word africa and automatically think we drive
        elephants to work
        <Dinxy> no you drive black people to work

