        #23822 +(426)- [X]

        <GimpChimp> I'm going to rape it. And tell the court it lead
        me on with its suggestive icon-wiggling.
        <GimpChimp> Just as soon as I work out the technical details
        of raping an Internet window.

