        #24290 +(1146)- [X]

        <Brando`> NEXT THING YA KNOW SHE WAS LIKE FUCK OFF AND LEFT
        <Brando`> HAHA SO I CALLED HER SHE WAS LIKE WHAT TOOK SO LONG
        <Brando`> AND I SAID I COULDNT FIND A SAVE POINT
        <Brando`> NOW IM SINGLE

