     #243317 +(430)- [X]

     --> trillback
     (~trillian@psu-1DF9C42E.nyc1-4.15.204.215.nyc1.elnk.dsl.genuity.net)
     has joined #ps-universe
     <-- trillback
     (~trillian@psu-1DF9C42E.nyc1-4.15.204.215.nyc1.elnk.dsl.genuity.net)
     has left #ps-universe
     (Repeat about 15 times)
     <Ioshua> +ban trillback plz. I only like this much in and out if it
     involves my woman.
     <Ioshua> or, at least, a friendly looking sock.

