        #243405 +(1093)- [X]

        <BlacKcaT>  So my computer is sweet. It's right next to my
        bed, so i can just pull over my keyboard and my mouse, since
        it's optical, and it'll all work and I'm nice and comfy lying
        down on my bed.
        <Benig> So my laptop...
        <BlacKcaT> Fuck you.

