        #250375 +(253)- [X]

        <Fuyutski> Canada has 32,200,000 people. :o
        <Dami> And I am one of them. XD
        <Fuyutski> America has 290,300,000
        <Fuyutski> =o
        <Dami> Fuyu: We're bigger, and we're on top. If this was
        prison, they'd be our BITCH.

