        #263081 +(1058)- [X]

        [17:21:17] * Joins: jesus (~jirc@167.206.250202.456309)
        [17:21:27] * Parts: jesus (~jirc@167.206.250202.456309)
        <The_Defiance> ... o_O
        <The_Defiance> So that was the second coming eh
        <The_Defiance> short lived

