        #2635 +(4560)- [X]

        <asr> 'fo sheezy.
        <Sabboth> what the fuck does that mean in english? you should
        understand that having a day job precludes me from 'keeping it
        real' and as such, I lack a certain familiarity with the
        language of the 'streets' as it were.

