        #26770 +(871)- [X]

        <Midtown> my family is going down the tube fast...
        <Punkrwker> y is dat?
        <Midtown> i walk into my rents comp room and my 13 year old
        bro is beatin off
        <Midtown> so i run into my moms room laughing my ass off and i
        say "go look at spence"
        <Midtown> she goes "is he playing with himself again"
        <Punkrwker> hahahahahahaha
        <Midtown> i almost fucking died laughing, then i was like
        ...."again?"

