        #277759 +(1737)- [X]

        (@der-carsten`) tim? no school today?
        (@Alucard`) it's saturday...
        (@der-carsten`) no, it's thursday
          Alucard` is now known as Alucard`school

