        #2823 +(55)- [X]

        <ThaDragon> =) (=
        <ThaDragon> =* *=
        <ThaDragon> =**=
        <ThaDragon> *ziiiip*
        <ThaDragon> =) o=u=8 O=<
        <ThaDragon> *SLAP*
        <ThaDragon> =/ `o=u=8
        <ThaDragon> Thats the story of a man and a woman on the first
        date.
        <ThaDragon> =P

