        #287665 +(2375)- [X]

        garrett8675309: heard you threatened to shoot my girlfriend...
        imptacular: yeah
        garrett8675309: you should get your membership card in 7-10
        days

