        #29237 +(33)- [X]

        (irix): scrim?
        (irix): :o
        (jot): against?
        (irix): team colorado
        (irix): :)
        (jot): we only play people from states that matter

