        #29247 +(353)- [X]

        <dingo> did you hear the polish government bought 5000 septic
        tanks?
        <twolovvers> what in the hell for?
        <twolovvers> well, as soon as they figure out how to drive
        them, they're going to invade germany.
        <twolovvers> huh?
        <twolovvers> I'm very naive, and I pay no attention to world
        news
        <twolovvers> so if your bullshitting me I havn't a clue
        <dingo> septic tanks....drive them...going to invade...
        <dingo> umm...
        <dingo> you dye your hair blonde lately?
        <twolovvers> no it's dark brown with a hint of red
        <twolovvers> septic tanks aren't meant to be driven
        <dingo> ...
        <twolovvers> so your making a polish joke to mock them?
        <dingo> i think they're mocking themselves at this point.

