        #29550 +(204)- [X]

        * Re-monkey (re-monkey@cdm-208-52-188-lkch.cox-internet.com)
        has joined #geekissues
        <Re-monkey> Wow
        <Re-monkey> It's all the people I've been laughing at.
        <Re-monkey> I love reading QDB.
        <Re-monkey> This is almost like seeing all the great celebs in
        one place.
        <Re-monkey> But, not quite.

