        #2956 +(306)- [X]

        <blazemore> my chair is starting to smell bad from me farting
        in it so much
        <blazemore> either that or it's the underwear i've been
        wearing for 4 days

