        #30263 +(241)- [X]

        <zipperface> Erin, mon cherrie, ta beauté et seulment
        comparable à qui a coupé le fromage.
        <Xanathis> did you say her beauty is comparable to a cup of
        cheese?
        <Jedah> no no
        <Jedah> her beauty is only comparable to who cut the cheese

