        #304808 +(690)- [X]

        <CaRlOs``>: who r u ?
        <sQuisha>: im squisha who r u
        <CaRlOs``>: i would b Carlos...
        <sQuisha>: k
        <sQuisha>: glad we cleared that up

