        #30590 +(636)- [X]

        [22:19] <savant9> nothin's worse than when you're watchin a
        porn and all the sudden they show the expression on the guys
        face... i mean c'mon.. is that really what i want to see when
        i'm holding my dick

