        #308569 +(927)- [X]

        <Bopo> 10mbit <-
        <@swelt> thats nice for you, and we are all glad you brought
        it to our attention
        <@swelt> we admire your amazing connection, and assume that
        your penis is proportionally large too
        <@swelt> we can only hope to attain such large connections
        (and genetalia) ourselves

