        #3229 +(863)- [X]

        * WestBeach pretends hes an earthquake and flies around the
        room
        <WestBeach> oops
        <WestBeach> i meant to type...
        <WestBeach> uhhh
        <WestBeach> airplane

