        #32784 +(374)- [X]

        <cheese^> a virus that reboots your computer all the time
        seems kinda pointless
        <@BenKenobi>  cheese  i dunno.. microsoft makes millions
        selling it every day

