        #32897 +(40)- [X]

        <hussain> we have a new domain
        <hussain> fruitopia.net
        <Arsenic> oh yeah?
        <Arsenic> ghetto :/
        <hussain> yeah.
        <hussain> bah
        <hussain> i'm getting 5 more soon
        ùíù sean_ [sean@hussain.is.a.gay.fruitopia.net] has joined #
        fruit
        <sean_> hEh
        <hussain> hahah
        ùíù SignOff/#fruit sean_ [sean@hussain.is.a.gay.fruitopia.net]
        (Remote host closed the connection)
        ð hussain snickers
        <Arsenic> Bastard.

