        #3324 +(375)- [X]

        <Acero> i hate this piece of shit router!
        <Acero> what do i do now
        <Acero> this piece of crap wont fix
        <Acero> i hate fucking networking
        <SD_Washu> rtfm?
        <Acero> i did
        <Acero> i read it like 3 times
        <Acero> it doesnt have a warez troubleshooting section
        <Acero> how to connect to your illegal ftp servers
        <Acero> "router settings for couriers"

