        #3351 +(645)- [X]

        <Wes> Anything good coming on TV tonight?
        <kolby> maybe nWo will return
        <Wes> Anything good that doesn't involve dudes in their
        underwear slap-fighting so they can get a new belt to wear to
        the Gay Pride Parade?

