        #33872 +(689)- [X]

        <three-hams> http://us.feamerch.com another good ass band
        <charliex> ass band
        <three-hams> (insert hymen between good and ass)
        <three-hams> err
        <three-hams> hyphen
        <three-hams> my god I'm an idiot

