        #33929 +(207)- [X]

        <phantom> damn.
        <phantom> All these people and no discussion going on?
        <drwiii> oh, we're talking, it's just encoded with
        rot-infinity.
        <drwiii> once the encoder hits infinity all the traffic will
        come spilling through.
        <phantom> uh.., either you're bullshitting me, or I've just
        lost all interest. Maybe both.

