        #33956 +(273)- [X]

        SilverErek: ever smoke a hash brown dude?
        Presuhn316: no
        SilverErek: try it
        SilverErek: see what it does to ya
        Presuhn316: i'll pass
        SilverErek: heh weak
        SilverErek: i thought we were pals :-(
        Presuhn316: not really
        SilverErek: why not:-(
        SilverErek: are you upset with me
        Presuhn316: no, i just think you're a moron

