        #34239 +(237)- [X]

        <Sart> blizzard is annoucing their new game in an hour or so
        <Dark-e> oh let me go to the bathroom now so i dont pee on
        myself in an hour
        <Sart> blizzard's web page has a new entrance pic now
        <Dark-e> omg
        <Dark-e> shit
        <Dark-e> didnt goto the bathroom

