        #34265 +(-4)- [X]

        <Annieland> i have beautiful skin
        <Annieland> some people are just jealous
        <rajn> no you don't
        <rajn> you're fucking ugly
        <Annieland> i do too
        <Annieland> fuck you
        <Annieland> i'm beautiful
        <rajn> fuck you
        <rajn> get hepatitis

