        #34278 +(150)- [X]

        <@mr_zap> kinda like some toilet seat incident I know about
        <@Glenn> hahaha
        <@Glenn> i went to the loo at kents place
        <@Glenn> forgot about the toilet seat
        <@Glenn> and i was like
        <@Glenn> fuck your toilets uncomfortable
        <@Glenn> and hes like, well, u gotta put the seat down

