        #34363 +(111)- [X]

        <Magus> # robots.txt for http://www.riaa.com/
        <Magus> # questions contact blong@riaa.com
        <Magus> User-agent: *
        <Magus> Disallow: /temp/
        <Magus> Disallow: /admin/
        * Magus cracks up

