        #34457 +(727)- [X]

        <Spoon35> my girlfriend drew a picture of an orgasm once
        <Spoon35> I didn't think it would look like that.
        <SenorWeir> was it her with another man?

