        #34507 +(62)- [X]

        Pron_Czar_Mike- inner city broadband is silly, like a
        crackhead mom with 6 kids can afford it, get it out to us
        middle class rural people first you bastards!

