        #34912 +(197)- [X]

        <TigerSun> AsiaDoll: the only reason I'm not rich yet is
        because I refuse to earn on others' stupidity
        <TigerSun> I believe stupidity should kill, not help others to
        get richer
        <TigerSun> I'm highly ethical!

