        #35316 +(132)- [X]

        <h3123t1c> we at IRC protection use AOL often
        <h3123t1c> it more organized
        <_Godless_> Of course, because .5k/s, constant drop-offs and
        and $24 for a sub$10 service is "organized"

