        #3579 +(264)- [X]

        <Slant> The problem with having gone this long without
        whacking
        <Slant> is that I have no quality pr0n in which to celebrate
        the occasion
        <Slant> that now I can whack
        <Slant> and thus I feel the "moment" isn't right

