        #3591 +(309)- [X]

        <Slant> ....
        <FutabaAoi> i see your ... and raise you ..
        <FutabaAoi> !
        <Slant> four baby.
        * Slant shoots FutabaAoi for cheating at the '.' table.

