        #36088 +(61)- [X]

        <Vagabond_> you get hit with a dick when you goto mcdonalds?
        <DrklrdBob> Usually.
        <Robyn``> DrklrdBob: Yes, and you will even get a free toy.
        <Vagabond_> is it a beefy dick?
        <DrklrdBob> Is the toy safe for children 3 and under?

