        #3662 +(260)- [X]

        <metroid23> all those dumb bots. they all sit around and make
        each other feel comfortable by confirming each others'
        decisions. it's like a big self-help group!

