        #36682 +(345)- [X]

        « INH- » hey!
        « INH- » you know what i hate?
        « INH- » when people pussy out of arguments by using "its my
        opinion"
        « INH- » if its your opinion, shut the fuck up and keep it to
        yourself, bitch!
        « INH- » ...
        « INH- » ritalin soon.

