        #36905 +(509)- [X]

        * peer stares at CCOutlaw[fagitz]
        *** Quits: CCOutlaw[fagitz]
        (outlawtorn@FFChat-24919.ipt.aol.com) (Connection reset by
        peer)
        <peer> :D

