        #37065 +(68)- [X]

        <Zug> Veronika: come give me head, plz
        <Zug> I'm cute and single.
        <Veronika9> Zug: go to hell
        <Veronika9> I only give head if there is something in it for
        me!
        <Zug> I'll talk dirty to you while you're doing it.
        <Zug> how's that.

