        #37139 +(129)- [X]

        <Bandit-> you guys are idiots >_< - what i said is true
        <Bandit-> the difference in modems now is negligable
        <Arcuivie> negligable? is that even a word?
        <Bandit-> actually yes

