        #37150 +(589)- [X]

        <kw> heh, got woken up with a blowjob to day.. thats a
        seriously nice way to wake up
        <Nathan> heh
        <Nathan> you sleeping at your parents again?

