        #37372 +(383)- [X]

        <Laity> this chick had her friend tell me, she's liked me
        since middle school
        <Laity> that's over 5 freakin years
        <Al_Koholic> haha
        <Al_Koholic> Is she hot?
        <Al_Koholic> "No."
        <Al_Koholic> "She has a hot personality"
        <Laity> i think she is
        <Laity> well, not amazingly hot
        <Al_Koholic> Just a good personality, no?
        <Al_Koholic> "She's a great person"
        <Laity> i put her pic on the net
        <Laity> lemme find it
        <Laity> (No, i'm not pathetic, i run our class website)
        <Al_Koholic> haha, and that's not pathetic?

