        #374400 +(260)- [X]

        <DeathPool> You know that internet culture has reached its
        peak when the first comment on a news post about an ape that
        walks upright is: HILARY DUFF APE SEX!

