        #375581 +(1136)- [X]

        DaLady Firestorm: hm... nother random question: if you could
        do one video game character, who would it be
        DerBrystar522666: now that is a tough cookie
        DaLady Firestorm: :-P
        DerBrystar522666: First thought is Max Payne
        DaLady Firestorm: lol
        DerBrystar522666: second thought is Justin from Grandia. Or
        maybe Roman from Armed and Dangerous
        DerBrystar522666: another thought is the Master Chief
        DaLady Firestorm: so, I ask which video game character you'd
        have sex with, and all your choices are men... :-P
        DerBrystar522666: oh... shit!
        DerBrystar522666: I read that one completely wrong

