        #3780 +(404)- [X]

        (nexxai) I just tried to light my smoke, but I forgot to put
        it in my mouth, and burnt my nose :(
        (nexxai) I lit the lighter, then realized the smoke was still
        on the desk
        (nexxai) D:

