        #37913 +(85)- [X]

        <syrinx53> oz is a weight and a volume
        <Znarl> How can it be both?!?! That's insane.
        <syrinx53> even crazier, it's different if you're measuring
        the volume of a liquid vs. a solid

