        #38114 +(752)- [X]

        <me> I had an ex called steve...who spent all his time on the
        computer....so one day I stripped naked and stood beside
        him...he turned around and said "I get your point" and went
        back to playing his game

