        #38408 +(375)- [X]

        <@godofcows> I swear that'd have to be the most evil thing you
        could do
        <@Vinic> what about donating 30 billion dollars of countefiet
        cash to child cancer societies?
        <@Vinic> on the back of each bill is you jacking off and
        saying 'here's your medicine bitch'

