        #3864 +(52)- [X]

        <ScumDog> I think the coathangers might have something to do
        with all those, ahem, "random" miscarriages
        <shin_k> scum : THAT'S JUST STRAWBERRY JAM ON THE COAT HANGER,
        REALLY!

