        #387392 +(331)- [X]

        <tweekie> omglife!
        * tweekie promptly dies
        <Davidious> Oooooo
        <Davidious> Hey babes
        <tweekie> no necrophilia play tonight, i'm too tired
        * Davidious sighs
        * Davidious Quit (Connection reset by peer)

