        #3880 +(513)- [X]

        <drano> i need to go to sleep soon, i was late for school this
        morning
        <Wyatt> being late rules.
        <furandfx> periods
        <furandfx> the only place being late does not rule

