        #39163 +(299)- [X]

        onkeybutt87: I saw more tonight then I've seen in the past
        fifteen years of my life
        onkeybutt87: I saw several girls in their bras
        onkeybutt87: (and, yes, they knew I was there)

