        #39276 +(10)- [X]

        <robbie> :D\-<
        * robbie was kicked by c-rOCK (punch.)
        * robbie has joined #geekissues
        <@c-rOCK> wheres your precious -user now? muahahahahahahaha
        <robbie> hey im not +fag anymore
        <robbie> whats that?
        <The_Llama> something is awry
        <robbie> what does awry mean?

