        #393904 +(133)- [X]

        <D1> ugh
        <D1> they put me on lithium!
        <sorbix> did they perscribe you batteries
        <D1> not yet.
        <D1> but who knows what they'll give me next time.

