        #39741 +(26)- [X]

        <N|O_r0x0rs_my_b0x0rs> then you have to copy the file
        'terraincd.dat' and the file blah balh to c: root or whatever
        <N|O_r0x0rs_my_b0x0rs> whats that mean
        <N|O_r0x0rs_my_b0x0rs> whats the hell is a root

