        #3976 +(227)- [X]

        <therioman> at this rate i'll end up working for some company,
        being married and having 4 kids
        <therioman> which i will ensure doesn't happen
        <therioman> i shall barricade myself with 45U racks

