        #398712 +(264)- [X]

        <Xal> how come people from foreign countries find it apt to
        use every single fucking smiley on msn?
        <Puck> XD
        <Puck> Because, Xaleth
        <Puck> They find it so amusing :O
        <Xal> "My father just beat me with a stick (h):D
        <Puck> o_o
        <Xal> Today, I got a hysterectimony. 8D :> :|
        <Selene> XD XD
        <Covered> xD

