        #40482 +(249)- [X]

        <j03bl0w> I did a /ignroe *@* CHAN in one window earlier today
        and only just realised, it worked in every window, and i've
        had EVERY channel I've been in on ignore today ..
        <j03bl0w> No fucking wonder I was bored
        <j03bl0w> I just thought "strange, no ones talking today"
        <j03bl0w> fucking hell.

