        #40492 +(309)- [X]

        <datacide> i just wanted to type shutdown -r now
        <datacide> and what i typed was stfu -r now
        <datacide> and for a moment...it looked as though the damn
        machine was gonna do soemthing
        <datacide> like a....stfu hidden binary

