        #4064 +(699)- [X]

        <FreshBrew> i dont know why i floss before i go to the dentist
        <FreshBrew> i never ever do it
        <FreshBrew> its like going to the doctor and pretending not to
        be sick so he doesnt yell at you

