        #40828 +(425)- [X]

        [@SI-pHluid]: ::: You successfully sent (Brazillian Horse
        Sex.mpg) (54.83MB) to (si-sonder) in (33m 18s) at (28.1KB/s)
        [@SI-pHluid]: er.
        [@SI-pHluid]: ignore that.
        [@SI-BlowShitUp]: ROFLMAO
        [@SI-BlowShitUp]: asdkf;mhsdFHG@$%^@$%^@$%^YRG
        [@SI-BlowShitUp]: NEW QUIT MSG
        [@SI-BlowShitUp]: askfgsdfGSE%^$W%^#$6
        [@SI-pHluid]: /clear :|

