        #41255 +(702)- [X]

        <reverb> ive been with my girlfriend for 16 years
        * reverb looks at righ hand
        <reverb> sometimes we have threesomes
        * reverb looks at left hand

