        #416957 +(389)- [X]

        <dragman> Did you know the legal age of consent in Canadia is
        14?
        <lockdown!> Interesting...all i need now is a cheap flight and
        some deodorant
        <lockdown!> I think Hollands has a low consent age as well
        <dragman> Hehe.  You go that way, I go this way and we meet in
        the middle.  Highest kiddy total wins £20
        <lockdown!> The game is on

