        #42095 +(87)- [X]

        <Draco889> Chickengod got caught masturbating in school
        <Cunnilingus> in his class ?
        <Draco889> not sure
        <Cunnilingus> bah
        <Zim[School]> :)
        <Draco889> its not easy i can tell you that
        <Draco889> wait
        <Draco889> nm
        <Cunnilingus> maybe he just masturbated in the toilets
        <Draco889> i wonder how he fit bolth feet in

