        #43485 +(32)- [X]

        <Cav> cant sleep, sodomising storm arse goblins are out to get
        me!
        <Rudeboi> cav: apparently they read bash.org and smokeyou.org,
        and didn't want a 'used' arse
        <Cav> hey, your just jealous cause im younger and have been
        laid more by the storm goblins :P

