        #43864 +(42)- [X]

        <incognegro> i masturbated yesterday.
        <incognegro> and fell down the fucking stairs.
        <incognegro> bruised my arm pretty badly.
        <mc> did you save your effluent in a jar

