        #43975 +(225)- [X]

        <Ogredude> neat, but the 2k doesn't work
        <Ogredude> now comes decision time
        <Ogredude> do I try to repair WinME or do I wipe the hard
        drive and install the much better win98SE
        <JeremiahSmith> You throw the whole thing out the window and
        become Amish.

