        #43996 +(669)- [X]

        <Steph-Away> I'M AWAY FROM THE COMPUTER NOW
        <Steph-Away> night!
        <IQpierce> dang
        <IQpierce> ALL OF YOU NOW ACT AS FEMININE AS POSSIBLE
        <IQpierce> maybe that will make up for there being no real
        chicks here
        * Geno rubs his nipples
        * Kevyn is listening to Celine Dion - My Heart Will Go On

