        #44086 +(254)- [X]

        [Tyr`] What The Fuck
        [Tyr`] the dcc port range cant be bellow 1024?
        [Tyr`] bah!
        [roAm] oh god no
        [roAm] god forbid you have to use ports 1024-65535

