        #44287 +(24)- [X]

        <Genome> im getting emacs for windows
        <Genome> this should be worth a laugh
        <SirLudicrus> oh my god
        <SirLudicrus> that's like getting a pinto engine for your
        ferrari

