        #444791 +(88)- [X]

        Muddin: but in criminal law we were talking about the people
        who have to stick they're hands up peoples ass's and search
        for drugs
        Cancel: Well I guess you could just say its a shitty job

