        #44641 +(75)- [X]

        <Saralou023> its a veteran computer......i think mines got a
        virus
        <CamboniMachine> dont u have norton or something like that?
        <Saralou023> a norton? ......is that a type of computer?

