        #44693 +(439)- [X]

        <QJ> your grandma opened the shower door
        <QJ> while you were wanking?
        <knox> yep
        <knox> it was worse than that
        <QJ> she finished you off??

