        #447150 +(799)- [X]

        <SupaShaD> i hate it when people invite me to eat dinner at
        their house
        <SupaShaD> cuz then i have to act all polite and shit
        <SupaShaD> when all i really wanna do is eat the food and then
        go fuck their daughter

