        #44906 +(-275)- [X]

        <uiop> go read a book with that guy from star trek
        <pork> which one
        <pork> DOUG MULRAY DOUG MULRAY
        <uiop> that black one, who was always reading on PBS
        <uiop> take a look, its in a book, a reading negro.
        <pork> oh him
        <jre-la> CONCLUSION: there's only one negro that can read

