        #450231 +(662)- [X]

        <ben in da hood> How do i turn on my mic?
        <mike6789> Well I tickle mine, that turns mine on ;-)
        ...
        <ben in da hood> It still isnt on.
        <lop12>lmfao

