        #45063 +(1410)- [X]

        <saloo> hey wanna chat;)?
        <Nataliehotgurl16> yeah hot guy
        <saloo> a/s/l
        <saloo> u thr
        <Nataliehotgurl16> 16/f/ca
        <saloo> 29/m here
        <saloo> wanna talk sex;)?
        <Nataliehotgurl16> STATUTORY RAPE
        <Nataliehotgurl16> STATUTORY RAPE
        <Nataliehotgurl16> STATUTORY RAPE
        <Nataliehotgurl16> STATUTORY RAPE
        <Nataliehotgurl16> STATUTORY RAPE
        <Nataliehotgurl16> STATUTORY RAPE

