        #450850 +(269)- [X]

        Phanth: What is Black and Red and can't get through a revoling
        door?
        Kono: what?
        Phanth:A Nun with a spear through her head
        Dev: LOL
        Kono: ROFL

