        #45104 +(806)- [X]

        <The-Pretender> I'm passing judgement on FF8 because I dont
        like the fucking eye candy. Too many damn graphics
        <Golbez> too .. many .. damn .. graphics .. ?"
        <Golbez> what the fuck do you want, pong?
        <Golbez> "Fight! White Paddle hits Red Paddle for 4 HP!"

