        #45445 +(209)- [X]

        <D3S> driving is like sex
        <yeager> D3S, driving is nothing like sex
        <yeager> if it was, I would hardly ever get to drive
        <yeager> and when i did, i would regret it afterwards

