        #45796 +(702)- [X]

        *** Guest_011 (amadajoe@ny-auburn1c-81.aburny.adelphia.net)
        has joined #movies-n-games
        *** PlayMate sets mode: +b guest*!*@*.*
        *** Guest_011 was kicked by PlayMate (No Guest**** nicks here,
        type " /nick newnick " to get a real nick and come back)
        *** newnick (amadajoe@ny-auburn1c-81.aburny.adelphia.net) has
        joined #movies-n-games

