        #45836 +(215)- [X]

         psynapse  pfft you think you kid is special?
         psynapse  when i guy cums he releases over 10 million sperm
         psynapse  at once
        ·seraph· wow
         psynapse  and you're amazed that ONE of these can fertilize
        an egg?
        ·Floach-· that's a lot of dead babies
         psynapse  heh :)
        ·Floach-· ;)
        ·seraph· ewww
         psynapse  i have let civilizations die on my chest

