        #46079 +(193)- [X]

        <freestyle> whats rhe best site 4 soccer transfers???
        <|-|00PsTa> www.metco.com
        <freestyle> metco?
        <|-|00PsTa> freestyle: movements euro transfers co operation
        <freestyle> thanks!
        <freestyle> DR. BROSS PROFESSIONAL COMPLETE
        <freestyle> PENIS ENLARGEMENT SYSTEM
        <freestyle> FUCK YOU U GAY FREAK!

