        #463561 +(2739)- [X]

        <crax> my son get an ibook from school. 5th grade.
        <Pothead> he doesn't deserve an ibook
        <Pothead> give him an iBinder like we used to have
        <Pothead> and an iPencil
        <Pothead> and an iLunchpail with Spiderman on it like I used
        to have
        <z1g-work> did you play with your iFriends
        <Pothead> iDidn't have any

