        #46386 +(399)- [X]

        <FeSTeR> oh ya great job pullin out of the parking lot
        today..lol almost hit a woman
        <GABAR> dude if i was any good at pulling out, you wouldnt be
        alive

