        #46396 +(399)- [X]

        «+ aisu_kurimu » damn right
        «+ aisu_kurimu » wait i think i messed up my ghetto lang
        «+ aisu_kurimu » damn straight*
        «+ aisu_kurimu » ughhhh 17 years in the ghetto, you'd think
        i'd pick up something
        «@Xellos-san» yeah, herpes

