        #46485 +(15)- [X]

        <Tibor-> grr. . .I don't have adobe, though, and I don't know
        what the hell "vector" is, nor does it outline the process of
        "converting" it :(
        <Darth-Phenom> Tib, by Adobe do you mean Photoshop?
        <Tibor-> Yea, probably, Phen. It just says Adobe Illustrator
        and such

