        #46738 +(173)- [X]

        [00:49:53] * Wynn is now known as Wynn|ZzzZ
        [00:50:14] * Gothmog is now known as Goth|aslp
        <Goth|aslp> nightall
        <Wynn|ZzzZ> geez.. don't make it too obvious..
        <Wynn|ZzzZ> at least wait 5 mins, dammnit.
        <Goth|aslp> i cant. i want you i need you oh baby oh baby
        <Wynn|ZzzZ> you *wish* you were Julia Stiles.
        <Wynn|ZzzZ> heck, *I* wish you were Julia Stiles.
        <Goth|aslp> lol

