        #46767 +(136)- [X]

        <Slack> *sigh* yes sir. **kneels** ((lol))
        <MaximumMango> > ((lol)) <--- doesn't that look kinky in an
        ascii sort of way?
        <Dest> Yes.
        <Dest> It looks like something I'd like to put my penis in.

