        #46835 +(302)- [X]

        <krypt> note to self: never tell a girl she's not tight
        <Bigbacon> did you?
        <krypt> yeah
        <krypt> i told her best friend last night
        <Bigbacon> what was her responce?
        <krypt> her best friend was like
        <krypt> 'she wanted you to think she was a virgin' and i was
        like 'i never thought she was a virgin' 'she wasn't tight
        enough'
        <krypt> then i was like
        <krypt> 'she has small boobs with big nipples too'
        <krypt> and her friend was like
        <krypt> I DON'T NEED TO KNOW THIS STUFF

