        #47103 +(375)- [X]

        <xjeff> ya'll want to see how fast I can type?
        <Cereus> not really
        <Cereus> i'd be more interested in seeing how correctly you
        can type
        <xjeff> me dont know wat u tlkin bout
        <xjeff> .........
        <Cereus> I, don't, what, you, talking, about
        <Cereus> congratulations. one word correct

