        #4734 +(34)- [X]

        <BurntAsh> you know what was funny
        <BurntAsh> when aalyiah died
        <BurntAsh> man i hated that bitch
        <BurntAsh> she wont be dusting herself off and trying again
        anytime soon

