        #484 +(1017)- [X]

        "A lot of people wonder how you know you're in love. Just ask
        yourself this
        one question: "Would I mind being financially destroyed by
        this person?"
           - Ronnie Shakes

