        #48733 +(7)- [X]

        <-Sharky-> lol, thats a new one
        <-Sharky-> raping urself
        <PuffinFreshWog> riight
        <PuffinFreshWog> well if your underage and you don't concent
        to you hand...
        <-Sharky-> so like ur playin wif urself, and then saying "No,
        no dont do this"
        <-Sharky-> to urself?

