        #48782 +(317)- [X]

        <Kevyn> I lent my friend money last nite so he could get a lap
        dance from a stripper. And he just said to me on AIM, "hey,
        thanks for the lap dance"
        <Kevyn> I'm so glad people can't overhear conversations on
        AIM.

