        #49007 +(221)- [X]

        <dustin> you ever masturbated on a washer when it was on spin
        cycle ?
        <dustin> it's the best
        <Sh3lby> if u say  so
        <dustin> just make sure it's not a public washing place
        <dustin> they don't take kindly to things like that

