        #49028 +(129)- [X]

        <shadow> I love compact cars. They're small and discreet...
        kind of like tampons.
        <Squirl> exactly
        <Squirl> and when youre done you just flush them

