        #491589 +(722)- [X]

        < mine9> 231,212 people or communities on LJ that list
        "sleeping" as an interest
        < mine9> 1.03 million for music
        < mine9> 324,420 for computers
        < mine9> and a measly 196,490 for sex
        < mine9> talk about boring people...
        < nub> that's because they're on livejournal. look up
        "masturbation"

