        #49248 +(297)- [X]

        <Janemba  its all the wang size moshun
        <andriod  anyone watch Buffy the vampire slayer
        <MoShun  you wang your dad?
        <Janemba  i have before
        <Janemba  but not often
        <Janemba  no no

