        #49278 +(138)- [X]

        <ctrlbreak> i went to Coles to get cigarettes
        <ctrlbreak> but forgot what i went there for
        <ctrlbreak> and came home with cordial and milk
        <ctrlbreak> instead
        <ctrlbreak> i feel ripped off

