        #49485 +(378)- [X]

        <[-FcG-]Digger> LOLOLOL, Some lady just called my cell and was
        like "Hi I'd like to place an order"  So I took it!  She's
        gonna be pissed when the pizza doesn't arrive.
        <[-FcG-]Digger> LMAO CLASSIC
        <[-FcG-]Digger> Oh man, I RULE!

