        #49513 +(480)- [X]

        <blabur93> I swear it was the most disgusting thing I've ever
        seen
        <Zoogle> like all male senior citizen bukkake nasty?
        <blabur93> ........ no
        <blabur93> but thanks, now i just imagined the most disgusting
        thing ever
        <Zoogle> np, anytime

