        #49626 +(-68)- [X]

        <Ffieldboy23> dim sim get a life
        <chineseguy4u> why dun u go bak to greasy wogland and shave
        dat monobrow
        <chineseguy4u> and take dat fully sik rear schpoiler of urs
        bak to wogland

