        #49952 +(-71)- [X]

        <Le0pard> i heard a story, about a dude, he put his penis in a
        girl's ass, pulled it out and it had shit on it, so he puked
        on her back.... and she started rubbing it around cuz she
        thought he jizzed on her

