        #50228 +(397)- [X]

        <Ma[N]da> he wont shut up about my mum
        <Ma[N]da> i swear i wannna kiss him
        <My`Albanian`Ass> kiss him?
        <Ma[N]da> oh my god
        <Ma[N]da> i mean kill him

