        #51463 +(270)- [X]

        <chadamir> I was gonna call my band 'trebek is god' but we
        decided that was a better album name and then we decided not
        to use it at all
        <kolby> and then you realized there was no band
        <kolby> it was just you and a karaoke machine

