        #51899 +(350)- [X]

        <Cow> the night is young! so young that If I were to have sex
        with it, it wouldn't know what I was doing, would be scarred
        for life and develop multiple personality disorder to evade
        the shock!
        <Cow> ....
        <Cow> ...
        <Cow> seriously.

