        #520799 +(1679)- [X]

        <irving> i do stuff like set up my garage door to open over
        the internet
        <MyPetGoat> having an internet-enabled garage door? what that
        fuck is that good for?
        <MyPetGoat> it's like you're the most pathetic Bond villain
        ever

