        #526 +(899)- [X]

        <matt`> <goh`> guilty you spelt speed wrong
        <goh`> spelled*
        <McMoo> <goh`> YOUR USUALLY SO CAREFUL
        <goh`> you're*
        <goh`> you guys are assholes

