        #53525 +(197)- [X]

        <Coogaar>  You really can t mince around with these TiVos,
        Todd. If you wanted to turn on a machine and have it tell you
        you were gay all the time, you would just play Counter-Strike
        online. 

