        #53611 +(184)- [X]

        <ApoIIyon> energy drinks are good
        <ApoIIyon> if u have less then 4 a day
        <topdawg> i had a couple of v's in a lecture
        <topdawg> then went to sleep
        <topdawg> i woke up at the end
        <ApoIIyon> yeah some people.. it wont work for them
        <topdawg> and felt like running around in circles :(
        <ApoIIyon> ahahahahahah
        <topdawg> it had LAG
        <topdawg> OH GOD
        <topdawg> V ON DIALUP
        <topdawg> :(

