        #53780 +(117)- [X]

        <Ten80> http://www.patrick.fm/boobies/boobies.php?text=
        Melbourne+Wireless
        <smarm> needs to have a line break :P
        <CRC-Away> man, only a geek would see a nice set of tits, and
        comment on the line break :)

