        #53923 +(687)- [X]

        RonnieOchsleder: Do you use Trillian for chat? It rox.
        fromagie: probably
        fromagie: i use adium
        fromagie: i haven't tried trillian - i shall
        RonnieOchsleder: It has lots of nice little icons.
        fromagie: oooh icons
        fromagie: looking now
        fromagie: ah, it's for windows?  I no have windows
        RonnieOchsleder: Yeah, it might just be for Windows.
        RonnieOchsleder: Fu - sorry - ck.
        fromagie: It's o - dick - kay
        RonnieOchsleder: That's good to kn - fuck off, then - ow.
        fromagie: Okay, nice tal - moron - king to you.  Take it - up
        the ass - easy.

