        #542591 +(530)- [X]

        <Mifuyne> how old is your iBook anyway?
        <+indigo> 4 years.
        <+indigo> :-P
        <Mifuyne> ah
        <~Delta> jeez
        <~Delta> that thing was made before the war

