        #54296 +(400)- [X]

        <sora> I don't think goths are evil and satanic, I think
        they're pitiful and irritating. Like street mimes, only not as
        much fun to set on fire with kerosene.

