        #55365 +(414)- [X]

        <daenonok> not unless you wanna get rodney king'd
        <daenonok> nerd style
        <R4g3^o^M4g3> I've seen it before.
        <R4g3^o^M4g3> Plastic keyboard wrist-rests and optical
        mice...it ain't pretty.
        <R4g3^o^M4g3> According to the police report "Six geeks who
        wish to remain unnamed mauled a defenseless jock in a birrage
        of girly punches and kicks, while repeating a (believed to be
        satanic) chant; '0wn3d d00d!"

