        #5541 +(243)- [X]

        * icenine --train &
        <j0ker> luck with your new job
        <j0ker> :)
        <icenine> not going to my job
        <icenine> i'm going to go punch a recruiter in the face
        <icenine> but close enough

