        #554294 +(516)- [X]

        SuperGiddyup222: I just watched an episode of married with
        children and ate a TV dinner
        work it joe: youre living the american dream
        work it joe: one heartbreaking piece at a time

