        #5548 +(281)- [X]

        <CoMBo> man i got 12 hrs of sleep about to come in a couple
        minutes
        <vermifuge> you sleep 12 hours everyday ?
        <CoMBo> yeah give or take an hour
        <vermifuge> i hope thats fucking canadian hours
        <CoMBo> main reason why i didn't do good in my grade 13
        <CoMBo> i think thats why i look so young, and skinny
        <CoMBo> cuz i get so much rest
        <|]resta> or it could be the HIV

