        #55784 +(44)- [X]

        Dr SpaZZo: http://members.tripod.com/tempestgames/razor.jpg
        Syphit: lol, who uses your razor?
        Dr SpaZZo: My sister keeps fucking taking them
        Dr SpaZZo: Theres like, 3 of mine in the shower...
        Syphit: lol, how old is your sister?
        Dr SpaZZo: 20.
        Dr SpaZZo: Youd think she'd be competent to get her own damned
        razors, wouldnt you.
        Syphit: yeah
        Dr SpaZZo: WELL SHE ISNT

