        #55915 +(-76)- [X]

        <txrx> ive been reading heaps of bash.org.. but prolly still
        not as much as u CRC.. ;)
        <CRC> so true
        <CRC> that would be quite an achievement :)
        <txrx> i always expect to see ppl from here. liek this is the
        center of the irc universe or something.. ;)

