        #574238 +(1030)- [X]

        <testman> i asked my girlfriend to come home to watch the last
        samurai
        <testman> and she answered "i'd like to, but i didn't see the
        first ones"

