        #578314 +(674)- [X]

        <Rhett> yes yes, but that's bringing hyperbole into an
        argument that, while silly, remains grounded in fact
        <moros|sreep> I'm not quite sure what hyperbole is, come to
        think of it..
        <Rhett> it's where the ADD children have their football
        championship

