        #579742 +(1172)- [X]

        <digamond> was a dude in a school that installed Firefox
        <digamond> the girl next to him asks what he is doing
        <digamond> he told her .. that he is installing a new web
        browser..
        <digamond> after that
        <digamond> when he started up the Firefox and went to google
        .. she looked at him and said..
        <digamond> that was not so nessesery .. it still shows the
        same websites

