        #58392 +(-37)- [X]

        <{fedom}> Dude, I am MCSE and A+, but I dont act lame like
        you!
        <{fedom}> I am MCSE, A+, CIW, Oracle DBA......I am sitting
        here
        on a dual p-Xeon 2.8Ghz, 10GB RAM, 1TB 15,000RPM ultra160 SCSI
        RAID HD;
        give a fucking break kid, I make more money than you ever
        will.

