        #587028 +(454)- [X]

        <Bakazuki> Damn it, I don't care if mouth is going to hurt
        like a bitch during winter break (I've stated this before; I'm
        having my wisdom teeth pulled out), I just want it now!
        <Jones> I will now take that quote out of context and spam it
        to people.
        <Jones> [11:20:25 PM] Bakazuki: Damn it, I don't care if mouth
        is going to hurt like a bitch, I just want it now!

