        #58831 +(125)- [X]

        <jre> http://www.toronto.com/feature/344/  "The cemetery's
        roots date back to the Primitive Methodists."
        <jre> Primitive Methodists
        <AFRICAN_THUNDER> so in other words 1967

