        #598350 +(259)- [X]

        hydroxyl prod: I'm getting a 19" lcd monitor for my birthday.
        hydroxyl prod: I'm very satisified.
        hydroxyl prod: But it sucks.
        hydroxyl prod: My PC blows ass.
        hydroxyl prod: so like
        hydroxyl prod: playing at 800x600 ut2k4
        hydroxyl prod: on a huge monitor
        tehBlueness: fun
        tehBlueness: it'll be just like the N64

