        #60119 +(630)- [X]

        <Zaboomafoo`> aw shit someone help me!
        <Zaboomafoo`> I happened to mention bukakke and my mom
        wondered what it was
        <Zaboomafoo`> Im afraid shes gonna like, ask some of her
        japanese friends what it is and then find out!
        <saijinsux> what did you tell her it was?
        <Zaboomafoo`> a japanese food ;_;

