        #60182 +(261)- [X]

        <Caveman> fuck...father in law had company this past
        weekend...including his friends like 17 or 18 year old
        daughter
        <Caveman> and da bitch didnt even use the bathroom with the
        hidden cam

