        #6055 +(552)- [X]

        <Guyver3> you know what the best part of being me is?
        <Guyver3> being me
        * Guyver3 gleams with an unholy glow
        <kingmob> now, see, that's the kind of attitude i like to hear
        <kingmob> the world needs more arrogant bastards
        <kingmob> i get lonely

