        #608067 +(3120)- [X]

        <zexis> hmmm you think this statistic is real?
        <zexis> every 2 minutes a woman is raped in Ohio
        <hal> why doesn't she just move?
        <zexis> ?

