        #61048 +(474)- [X]

        <RS-Ryan> crap.. i'm having a blonde moument, what's IGMP
        again?
        <Not_RS_Webby> shit beats the fuck out of me
        <Not_RS_Webby> im drunk
        <RS-Ryan> God you Cisco support techs suck

