        #614648 +(2357)- [X]

        <@Wally> stupid muslims promise virgins
        <@Wally> if they promised lightsabers I'd be on my way to
        mecca
        <@Wally> I can hang out with virgins on IRC

