        #621568 +(2301)- [X]

        < Darien> I saw a coworker trying to figure out how to make
        his chair lean back
        < Darien> he was on the ground looking at the bottom of it
        < Darien> we talk about the chairs for a minute or so
        < Darien> then he puts on his headset, hits a button on his
        phone, and says 'Sorry ma'am, thanks for holding.'

