        #62705 +(207)- [X]

        <toe2toe> the part i like is where IRAQ's going "we got
        nothing"
        <toe2toe> and US is going "PFFFT WE'RE GONNA TAKE YOU OUT"
        <toe2toe> and then
        <toe2toe> North Koreas going "CHECK OUT OUR NUKES, BUDDY"
        <toe2toe> and US is going "Hey... are you iraq? no? THEN STAY
        OUT OF IT"

