        #62981 +(702)- [X]

        <DarkMistress> I'm so goth that when I was a toddler, I didn't
        cry over spilled milk, I MOURNED it.
        <DarkMistress> I'm so goth I have a fishnet umbrella
        <open24hours> I'm so goth my wrists slash themselves.

