        #634805 +(411)- [X]

        <@Miss_Morgan> heh
        <@Miss_Morgan> ok get this
        <@Miss_Morgan> I came up with a marketing campaign for a new
        cereal
        <@Miss_Morgan> I was staring at some fruit loops I poured
        myself
        <@Miss_Morgan> and after about 5 minutes of staring and
        munching, I realized something
        <@Miss_Morgan> red... orange... yellow... green... blue...
        violet
        <@Miss_Morgan> it's the 6-color rainbow!
        <@Miss_Morgan> so get this
        <@Miss_Morgan> in an approaching perspective and going up,
        stars and glitter-things coming off of the name
        <@Miss_Morgan> Hom-O's
        <@Miss_Morgan> and have three gay guys in the corner of the
        box
        <@Miss_Morgan> on the bottom of the front pane, there'll be
        the slogan
        <@Miss_Morgan> "They're fruity, they're colorful, they're
        fabulous!"

