        #635060 +(1953)- [X]

        <MJak> whats that movie with the the planet full of talking
        apes?
        <Nitrix> Planet of the apes...?
        <Mjak> Yah the one where the space guy crash lands there whats
        it called
        <Nitrix> Planet of the apes...?
        <Mjak> YES BUT WHATS THE FUCKING NAME OF THE MOVIE

