        #638108 +(1006)- [X]

        <@cypher> I've never seen the name "Tabitha" used outside of
        porn
        <jasper> I have a cousin named Tabitha
        <@cypher> Then I've probably seen pictures of her
        <jasper> :-\

