        #643308 +(30)- [X]

        <qu37z> thats the last time I let a mexican live in my garage
        <qu37z> especially a quaker mexican
        <qu37z> that fucker gets up at 4am and starts sleeping.

