        #648801 +(2953)- [X]

        <Demon Beaver> So, at the LAN-party, there was a new guy.
        <Demon Beaver> And when he went for a drink, we snuck up to
        his pc, and created a folder called Horse-Porn on the desktop.
        <Demon Beaver> Then we took a screenshot, put it as his
        wallpaper, and deleted the folder.
        <Demon Beaver> He tried to get rid of that folder for 3 hours!
        ^^

