        #651411 +(236)- [X]

        <Baloo> Supermarkets should have a newbie lane for the
        self-checkout.
        <Baloo> "If you're a loser who hasn't seen the bag boy scan
        shit at the checkout before, and you've never bought a soda
        from a vending machine in your life, use this line."

