        #65222 +(250)- [X]

        <Minion> I think I might have genital herpes.
        <Minion> Holy fucking shit
        <Minion> Why does herpes.com have a dating service?
        <Minion> "I got genital herpes! Better go spread it!"

