        #6538 +(573)- [X]

        <_404notfound> Best prank ever: while your male friend is
        sleeping, slip a condom on him, and get one of your female
        friends to lie next to him until he wakes up.
        <BobTheMilkman> 404: or better yet, a male friend

