        #659546 +(485)- [X]

        <rifkin> Happy Flag day everyone
        <rifkin> the US army is 231 years old today
        <rifkin> to celebrate I am leeching wireless from some iraqi
        in baghdad

