        #6619 +(249)- [X]

        <Jon^D> if I was gay and in ireland I'd score with gav
        <Jon^D> he's my hero
        <Jon^D> he'd probably have to be gay too mind
        <arioch> those repressed homosexual tendencies are coming to
        the surface now
        <Jon^D> I wish I was gay

