        #66212 +(1271)- [X]

        <Skier`> oops
        <Skier`> I just opened the door to let my cat in, and it
        wasn't my cat
        <Skier`> there's a strange cat curled up on my couch now

