        #662788 +(-185)- [X]

        <ByeRights> what is it? firewire?
        <@Pugh> erm...Serial
        <ByeRights> probably uses a universal serial bus then
        <ByeRights> oh wait, USB...

