        #670444 +(538)- [X]

        <impl> If I were a cow and getting assraped, I wouldn't just
        be thinking
        <crimsun> you'd be using emacs.
        <crimsun> woops, ECHANNEL
        <iank> That doesn't make sense, but it sounds like he's making
        fun of emacs so I like it.

