        #6711 +(342)- [X]

        * Racked recalls the past: my teacher said, "I have a 10-foot
        snake here"....to which I replied, "oh no you don't....snakes
        don't have feet!"
        * GPF recalls saying something like that to a teacher and
        getting detention

