        #674379 +(0)- [X]

        <fonz> that's all black people are
        <fonz> they're white people with chocolate instead of blood
        <stav> hence all the stabbings
        <fonz> exactly they are just looking for the golden ticket

