        #674850 +(725)- [X]

        <drev> how was your weekend?
        <LaDyLoVe> amazing! my friends threw a surprise party for my
        birthday :)
        <drev> fuck the closest thing ive ever had to a surprise party
        was a fucking intervention

