        #682642 +(886)- [X]

        <ds4l> Tried to beat off today when mom was at the store
        <ds4l> It s just me and mom living in this house
        <ds4l> I popped in my fav porno and it started in a different
        place then where I left it.

