        #68653 +(-643)- [X]

        <chojin> i love reading the bottom quotes on bash.org
        <chojin> they're so funny
        <chojin> i mean, even niggers know they're funny
        <djay_> !
        <chojin> well, they would, if they could read the quotes
        <chojin> dumb niggers

