        #6869 +(209)- [X]

        * BrooKiki is NOT a bad person.
        BrooKiki: I'm not even a mean person.  In fact, if people like
        that were drowned at birth like they SHOULD be, I'd be Miss
        Freaking Congeniality, dammit!

