        #688824 +(355)- [X]

        <MALF> ebay is where cocaine addicts sell things for profit
        <tak> thats what pawn shops are for
        <tak> ebay takes too long
        <tak> need crack NOW
        <spun> but you actually need shit to sell at pawn shops
        <spun> ebay you can sell a picture of a laptop

