        #698341 +(1997)- [X]

        <Xenecrite> Guys, I found the greatest glitch!
        <Xenecrite> It's one of those ads where you have to hit the
        target.
        <Xenecrite> You can click anywhere on it and you STILL get the
        prize!
        <Xenecrite> 53 free laptops for me!

