        #7004 +(173)- [X]

        <@Logan> I think my roommate has a strong aversion to taking
        out the trash.                                               
                                       
        <@drini> kill him
        <@drini> ok maybe not a good idea
        <@drini> you'll have to take out garbagetwice
        <@drini> as often

