        #70559 +(149)- [X]

        <Spike> I had a cook at my job ask if I wanted to go out for a
        beer and a bong hit today.
        <Spike> I should have known to just say no when a 40 year old
        man who was in jail for a year says to me (age 19) "Hey, what
        are you doing tonight?"

