        #7108 +(219)- [X]

        (goosedaemon) someone define "talking out of [a] ass"
        (Leper_Mess) goose; you know.. get a donkey, and speak without
        moving your lips so it looks like the donkey's talking.

