        #713121 +(300)- [X]

        poetically kyle:  my gramma's funny...we were driving behind 
        a short bus and she saw all the helmets and she was like "OH
        LOOK! HOCKEY PLAYERS!"

