        #714697 +(1652)- [X]

        <Daniel> The new bash quotes suck
        <Nictheman> You realise if this goes on bash, you'll be part
        of the new quotes, and will therefore suck?
        <Daniel> ..
        <Daniel> Fuck you.

