        #7153 +(1137)- [X]

        <bumr> maybe he makes mad love to the penguin
        <dys> Perhaps Cathy wears a Tux the Penguin suit for him.
        <dys> And then he "debugs her code" all night long.
        <bumr> cunnilinux

