        #71657 +(279)- [X]

        Sway21: dude frondz how do you type so fast
        Frondz: It's not something I'm proud of.
        Sway21: why's that
        Frondz: It's detrimental to masturbation.
        Sway21: .. guess i should stop asking so many questions

