        #7167 +(54)- [X]

        <[7^11^Dropout]> i will put you in a wheelchair witha
        shpinning, half-twist, lebanese heel kick mate
        <Mousey> if you were lebanese you would still be working at
        7-11
        <Mousey> lying cunt

