        #7194 +(848)- [X]

        <nit`zZz> I was lovin that pussy while she was lovin this
        dick, I was shovin it in her while she was yellin dont quit
        <NGN-_-> Then you realized you were dreamin that shit - in
        real life your a no-pussy gettin prick

