        #720098 +(875)- [X]

        <bluechip> so
        <bluechip> apparently my younger sister
        <bluechip> learning to drive
        <bluechip> does not actually look behind her
        <bluechip> when she backs up
        <bluechip> or check any of her mirrors
        <bluechip> so now, instead of having two separate cars
        <bluechip> we have one.. big car

