        #720959 +(586)- [X]

        disturbed c0w: but jesus
        disturbed c0w: how can you read all of bash
        disturbed c0w: thats like reading the dictionary except cock
        is in there a lot of times

