        #72234 +(508)- [X]

        <fiveiron> you porn addicted freaks
        <fiveiron> porn rots your mind
        <la_haine> course it doesn't
        <la_haine> you're thinking of TV
        <fiveiron> no, i'm thinking of porn
        <fiveiron> no wait...that didnt sound right...

