        #726941 +(614)- [X]

        <Andymc> lawl 156 photos on my phone...
        <Andymc> but i don't have a fuxxing way to get them onto the
        comp... need a bluetooth dock or summat
        <GriM> peel them off and re-apply glue?  Perhaps a mild
        solvent to loosen the sticky?
        <Andymc> You should apply for a job at Dell...

