        #7272 +(301)- [X]

        ( Fuzzy     ) jBalls: go get all asian on them and start
        bargining
        ( jBalls    ) haha i lack that crucial gene
        ( jBalls    ) i cant bargain my way out of a cardboard box
        ( Lev       ) but you ddr like a motherfucker

