        #739375 +(2721)- [X]

        <Tostitos> i like my women the way i like my coffee
        <Jet> Ground up and in the freezer?
        <SteveTheImpermeableHamster> full of your cream?
        <mistik> hawt?
        <Dokterrock> What, tied up in a sack and thrown over the back
        of a burro?
        <RaMTuFF> quiet ?
        <Jet>: Colombian?
        <Aimee> hot?
        <Jet> From McDonalds?
        <djswift2k3> Black?
        <SteveTheImpermeableHamster> in a cup?
        <Jet> Spilt all over your lap?
        <Aimee> cheap?
        <whiteboihere> strong and black?/
        <Tostitos> i hate you all

