        #74124 +(343)- [X]

        «RazoR»: Hey, ZP, you there?
        «RazoR»: you suck cocks
        Zerg_Predator: yeah
        Zerg_Predator: hey!
        Zerg_Predator: damn laggy modem
        Zerg_Predator: I was answering to the quetion
        «RazoR»: you suck cocks is not a question
        «RazoR»: It's a fact

