        #741833 +(441)- [X]

        <c-unut> pfft slipknot
        <Finch > slipknot go good
        <c-unut> I've always seen them sorta like anal sex
        <Finch> if u want to look at it that way...
        <c-unut> You know, I appreciate that some may enjoy it, and it
        has its moments, but at the end of the day, its still fucking
        shit.

