        #74208 +(160)- [X]

        <jGoo> i wish when you guessed a channels key it didnt say
        (need correct key), i recon it should say things like (warmer)
        (WARMER) (HOT!!)
        <jGoo> .....?
        <jGoo> does this nick make me look fat?

