        #747191 +(134)- [X]

        DeathDread26: Ever consider lifting a lawnmower up and using
        it like a weapon against a horde of people?
        NiNj4 4Ss4SsiN: no
        DeathDread26: oh
        DeathDread26: so... i am the only one?
        NiNj4 4Ss4SsiN: lol i guess
        DeathDread26: damn.  know any good psychologists?

