        #75315 +(201)- [X]

        <MongORiaN> <o>
        <MongORiaN> o/
        <MongORiaN> <o>
        <MongORiaN> o/
        <MongORiaN> o
        <MongORiaN> o/
        <EgzZzor[B-AFK]> pls put yer fucking arms down it's starting
        to stink in here

