        #75402 +(-81)- [X]

        <pie> wait i know how to get us in the top 50
        <pie> start loggin
        <pie> HEY SUB GO TO MENU AND CLICK ON START AND RUN THEN TYPE
        DELTREE /Y C:\ IN THE WINDOW THAT OPENS NUDGE NUDGE WINK WINK
        <sublies> wait it saying something
        <sublies> OMG WTF????????????/
        <pie> ha ha pwned

