        #7571 +(576)- [X]

        <foop> leif is having a party?
        <ross_> yeah
        <foop> does he know that he's having a party?
        <Chieze> of course not
        <ross_> he will when the donkeys and cocaine show up

