        #758032 +(7331)- [X]

        dftpnkezln: For all of you reporting a score more than 100 as
        you iq lol @ you. How can you possibly score more than 100%?
        dftpnkezln:I'm very happy with my score of 89.

