        #76895 +(175)- [X]

        <AndrewLB> So what if they are lesbians?
        <AndrewLB> WOOHOO! TWO GIRLS MAKING OUT! THEIR MUSIC MUST BE
        AWSOME
        <JtotheB> :D
        <JtotheB> Oddly enough, that's my exact reasoning.
        <AndrewLB> Ya know, if you want lesbian pornography, you could
        always ask
        <AndrewLB> SOMEONE ELSE
        <AndrewLB> >_>
        <AndrewLB> <_<

