        #76933 +(90)- [X]

        <dewwop> maybe i should masturbate more?
        <Sir_Frag> with 60 grit sandpaper even
        <Sir_Frag> for extra pleasure
        <skold> haha 60 grit
        <skold> talk about tearin some shit up
        <skold> your cock would be a mangled piece of dangling penis
        flesh
        <dewwop> ill just use steel wool
        <Annieland> ooh i love steel wool

