        #770519 +(514)- [X]

        Allan: incidentally, my house is Zombie resistant.
        Crysm: how so?
        Allan: I wonder why that is
        Allan: elevated first floor, strong steel doors.
        Allan: the windows are out of reach, basically.
        Crysm: it's next to a graveyard, man
        Crysm: the planners had to think ahead
        Allan: good point
        Allan: ...dear god, I gave my house a zombie proofing
        assessment.
        Allan: That's... a whole new level of something.

