        #7710 +(70)- [X]

        <IlpaTYPER> would this have anything to do with banning
        Class316? heh
        <Fakester> no
        <Fakester> he should be banned at all times
        <Fakester> IMO
        <DN|PISSED> he should be klined from planet earth

