        #7717 +(372)- [X]

        <cosmok> what is programming anymore, copy paste copy paste
        <cosmok> copy, reorganize, paste, rework, paste
        <kez> you missed a bit off the end
        <cosmok> ?
        <kez> </html>

