        #77198 +(313)- [X]

        <Cody> where'd you two meet again?
        <Derian> a mud.
        <Cody> ahh
        <Derian> Yah. I'm just glad he wasn't an axe murderer.
        <Cody> heh, yeah
        <Derian> but he swears he's never murdered a single axe
        so.....
        <Cody> well that's good to know
        <Derian> If you're an axe.

