        #776606 +(866)- [X]

        <Sword_Saint> God, I hate conspiracy theorists
        <Sword_Saint> I almost wish they were right
        <Sword_Saint> so the government would abduct and kill them
        <Sword_Saint> and shut them the fuck up

