        #7775 +(237)- [X]

        <n> the only thing that gets him away from eq is beer
        <Doza> at least he hasn't totally sold out
        <n> what we need is a helmet we can strap onto him... with
        tubes that go down his thoat... and you hook it up to the
        puter... and it dispenses beer every time he gets a frag
        <n> then he'll play q3

