        #78 +(227)- [X]

        <AlmtyBob> I think they should make 'Powerpuff Girls: 2012', a
        live action movie, where the powerpuff girls are played by mad
        hot chicks
        <AlmtyBob> teenage chicks

