        #782342 +(999)- [X]

        KompRa: dude, my girlfriend dumped me yesterday..
        Ryan808: itll be fine man
        KompRa: i got so angry last night i went to her girlfriend and
        i fucked her all night long
        KompRa: and the sad thing.. it was on April Fools' Day
        Ryan808: komp, i think your ex was just messin wit you on the
        breakup thing, april fools
        Ryan808: i think u should verify that :\
        KompRa: holy shit

