        #7840 +(232)- [X]

        ð Zibblsnrt simply wants food (there's /none/ in the house
        ATM) .. ponders
        making a pizza run or something
        <rob`> zib; isn't halifax still under a few meters ice?
        <Zibblsnrt> rob: And?
        <Zibblsnrt> :)
        <rob`> is there a tunnel network or something?
        <Zibblsnrt> rob: No, we simply float atop it because we're
        just that suave

