        #78835 +(383)- [X]

        <+MrCuban-> File Server Online Trigger:« @ILOVETHECOCK »
        Sends:«0» Queues:«0/15» MOTD: -= over 75gig of gay porn !!! =-
         I-n-v-i-s-i-o-n 
        <@Ostritch-> @ILOVETHECOCK
        <scissors> Hahaha your a gay lover
        « Ostritch- » ?
        « Ostritch- » no i wanted to erm
        « Ostritch- » download porn
        « Ostritch- » for a friend of a friend
        « Ostritch- » who has a gay
        « Ostritch- » cousin
        <scissors> LOL

