        #80411 +(642)- [X]

        <Josh_Aogiri> "Give a man a fire, he is warm for a day. Set a
        man on fire, he is warm for the rest of his life."
        <odin> I dissagree
        <odin> He'll be warm a few hours after his life is over

