        #80413 +(1049)- [X]

        <Spliff> What's the meaning of life?
        <CrystalShard> To find out whats the meaning of life.
        <Rivorus> woah
        <Rivorus> deep
        <CrystalShard> "We are the Universe that is trying to
        understand itself." - Delenn, Babylon 5.
        <Rivorus> "I like chicken, I like liver" - Kitten, Meow Mix
        commercial
        <CrystalShard> Woah.
        <CrystalShard> Deep.
        <Rivorus> hahahaha

