        #8059 +(690)- [X]

        <Electroly> kurros has a l33t ass projector, I saw a picture
        of it just once
                      and I've been drooling ever since
        <T-ball> nice...
        <T-ball> I don't have room for a projector... :/
        <Brazilian> I have a monkey who draws on my wall really fast

