        #806949 +(736)- [X]

        <Ryou> 360's are great but their hardware quality is pretty
        lol
        <Kuraineko> it's called 360 because of the trip it takes
        <Kuraineko> from microsoft, to you, back to microsoft, to you
        again

