        #8085 +(448)- [X]

        <biatch> he tells me how he's cheated on two of his gfs
        <biatch> then when i email him telling him i'm back with luke
        <biatch> he's all disappointed
        <biatch> and he's like
        <biatch> "i told you about the girls i cheated on because i
        wanted you to TRUST me"

