        #80932 +(307)- [X]

        <ed2000nyc> irc is waste of my time
        <ed2000nyc> cya
        ed2000nyc
        «~ed2000nyc@207-237-236-47.c3-0.nyr-ubr1.nyr.ny.cable.rcn.com»
        has Quit iRC (-=SysReset 2.51=-)
        <Yourmove> hmmm usually it takes years to find that out..
        <Yourmove> he's a quick learner

