        #809302 +(3083)- [X]

        <Zyrjello> E-mail from my comp sci professor:
        <Zyrjello> I want to be clear on this point, because several
        <Zyrjello> people have asked me.
        <Zyrjello> The release of HALO3, tonight, does NOT qualify
        <Zyrjello> as a religious holiday.

