        #80993 +(508)- [X]

        Slava1983: i was walking trought the cafeteria and see a chick
        Slava1983: but for some reason there was two of her
        Slava1983: so i come up and i'm like am i too drunk or are you
        twins
        Slava1983: turned out they were twins

