        #81853 +(-4)- [X]

        (@Stoner-EH) this is gay
        (@Stoner-EH) i think it's a problem with our line over in
        californioa
        (@Stoner-EH) california
        (+Wheelman56) is it causing you to make typos?

