        #82099 +(674)- [X]

        <d_e> MarcusYu: why are you learning Japanese?
        <MarcusYu> Seriously, to watch anime and play video games
        <d_e> I bet it's a retarded reason, like for RPGs and anime
        <d_e> oh my god
        <d_e> are you serious?

