        #82132 +(208)- [X]

        - Elim is now known as Elim-playing-with-penis
        (@Elim-playing-with-penis) weeeeeeeee
        - who is now known as penis
        (penis) yay
        (penis) !
        ! penis plays with elim
        (@Elim-playing-with-penis) yea you like that penis...weeee

