        #8228 +(280)- [X]

        <alexei^se> I need a new hd
        <alexei^se> 10gb hd yah yah!
        <xK|servo> ya i have a 20 just got a 40
        <xK|servo> mfr at office max was like hey pal need some extra
        space for all them mpeg files
        <xK|servo> i was like shit you got me man
        <xK|servo> hes like hey dont worry we all do

