        #83602 +(1433)- [X]

        (@Wheelman56) 37.  What does the average person do
        approximately 15 times a day?
        (@Wheelman56) Answer: _____
        (@]D2D[Scratch) masturbate
        (+ep`andro`shower) masturbate
        (+TD|Canuckistan) masturbate

