        #8368 +(387)- [X]

        * Valvados pulls out a random Indiana joke
        <Valvados> HEY
        <Valvados> Why doesn't Kentucky slide into Tennessee?
        <Valvados> BECAUSE INDIANA SUCKS

