        #83994 +(156)- [X]

        <migas> is the atomic weight of cobalt 58.9?
        <Kurin> 58.9331
        <Kurin> er
        <Kurin> 58.9332
        <Kurin> Or, hrm
        <Kurin> http://www.yaksic.com/other.html
        <ninj4_> dood, its a robot, hes not actually looking for an
        answer
        <Kurin> Really?  Fuck em
        <Kurin> me

