        #841435 +(1571)- [X]

        <Sam> Coding in C is like sending a 3 year old to do
        groceries. You gotta tell them exactly what you want or you'll
        end up with a cupboard full of pop tarts and pancake mix.

