        #84421 +(810)- [X]

        <Killzig> you guys want to hear something fucked up i did at
        work today, which I blame all of you for -- by the way
        <Insane-Lark> sure
        <Dan`> ?
        <Killzig> I faxed a quote to a client and wrote "K THX BYE" on
        the bottom

