        #8450 +(309)- [X]

        <Tippytoes> i got a cute winnie the pooh keyring for my bike
        today
        <Tippytoes> he's cuddling piglet
        <undrewb> aww thats nice
        <undrewb> uh
        <undrewb> thats not cuddling
        <Tippytoes> or slipping him the pork sword
        <Tippytoes> oh well
        <undrewb> THATS ILLEGAL IN TASMANIA
        <Tippytoes> piglet's happy
        <Tippytoes> he's smiling
        <jamesn> piglet is a bitch
        <Tippytoes> or it could be a wince

