        #84700 +(843)- [X]

        <Iconoplast> why do people insist in distributing things in
        real audio format?
        <cowofdoom> because they love Hitler.
        <Iconoplast> that's what i was thinking.

