        #848957 +(2632)- [X]

        Nameskaz: can you help me with an experiment real quick?
        MarineWife021406: sure
        Nameskaz: let me see you naked
        MarineWife021406: no
        Nameskaz: you see, these fortune cookies are bullshit
        Nameskaz: "Your courage will reward you" my ass

