        #8497 +(567)- [X]

        <hakan> I hate it when the girl looks into the camera during a
        blow job. It totally destroys the fourth wall, which is so
        very important in a porno flick.

