        #851 +(1067)- [X]

        <BlackDeTh> this girl was taking e for the first time.. so i
        knew what i had to do.. i made it a night she'll remember.
        (and me too :D
        <lux> she'll remember it as rape at the trial and you'll
        remember it as consentual

