        #85508 +(259)- [X]

        <uneekwahn> you know what I hate
        <uneekwahn> when you bring a hot chick home
        <uneekwahn> you've got a pc in your bedroom
        <uneekwahn> and she finds a pubic hair on the keyboard :(

