        #858690 +(1168)- [X]

        <@terminal> dudes i must say
        <@terminal> it's interesting to start your day off with a
        morning BJ
        <@renounced> you should probably tell the police your step
        father is molesting you

