        #8598 +(18)- [X]

        <[T]ANGo> I fear that Tech Knight would not pass through a
        metal detector unnoticed.
        <Crashie_> and he has no hobbies :)
        <Filly-O-F> apart from masturbating furiously into fistfuls of
        his own feces

