        #86012 +(217)- [X]

        <revmoo> well
        <revmoo> msg nexis
        <revmoo> maybe he is one of those nerds that has his shit set
        to wake him up in the middle of the night if someone pm's him
        :P
        <Geoff-> LOL
        <Geoff-> hey
        <Geoff-> i used to have that

