        #86247 +(43)- [X]

        <timmo> tim would rather fuck a woman who doesnt know what the
        hell irc is
        <c-rOCK> fuck that
        <c-rOCK> i want a hottie who can irc it up.
        <c-rOCK> and i wanna be like
        <c-rOCK> yeah im a mod on bash.org
        <c-rOCK> hop on my dick now slut.

