        #8632 +(115)- [X]

        <@Lum_> 128 mb is enough
        <@Lum_> it's fucking enough for microsoft dev studio
        <@da_slog> NO IT ISNT STFU NEWB
        <@Lum_> I think it's enough for my TANK GAME

