        #876463 +(1485)- [X]

        <@vorien> Finally fixed the bot to do real-time language
        translation, check it out.
        <@vorien> lum, translate to spanish I am unable to accept a
        position at this time with your company. Thank you for your
        interest but I am an english speaking individual.
        <@lum> vorien: :(
        <@vorien> damn
        <@vorien> lum, translate to spanish I am unable to accept a
        position at this time with your company.
        <@lum> vorien: :(
        <@vorien> wtf
        <@vorien> lum, translate to spanish I like donkeys for sexual
        purposes.
        <@lum> vorien: Tengo gusto de los burros para los propósitos
        sexuales.
        <@vorien> Naturally.

