        #878 +(1417)- [X]

        <Dipstick`> women exist?
        <Dipstick`> well.. i've seen drawings
        <Dipstick`> and my mother CLAIMS to be a women
        <Dipstick`> i don't believe it though.... she doesn't look
        anything like the drawings

