        #881393 +(2441)- [X]

        <jax> I think the thing I've been most ashamed of doing with
        my penis
        <jax> was trying to see if I could register it as a
        fingerprint on my laptops fingerprint scanner
        <jax> JUST so I could login with a penis print
        <jax> it didn't work :(

