        #8835 +(263)- [X]

        mike_afe > [John's dad is sick of waiting. His son has been in
        'that bloody bathroom' for nearly two hours. Finally, his
        temper snaps; he kicks down the door to discover his son
        knealing infront of the 68000 data manual.]
        mike_afe > "Ah! Shut the door dad!"

