        #8851 +(541)- [X]

        <Grumbledook> my mum told me off for saying fuck in front of
        her
        <bodhi> hmmm
        <bodhi> my dad bollocks me for saying piss in the house
        <Grumbledook> :P
        <dave> my mum told me off for shitting on a plate and putting
        it in the fridge

