        #88623 +(116)- [X]

        <Psychedelia> i live here with my two flatmates in one room, a
        small corridor and a toilet
        <Psychedelia> i'm in poverty lol
        <Abrid> ha ha! right on
        <PornoFiend> Where's poverty?  Is it nice?

