        #893921 +(361)- [X]

        < iKBerry> man thus driving and ircing thing rocks
        < iKBerry> fuck brb getting pulled over
        -!- iKBerry [~Fox@170.206.224.54] has quit [jmIrc destroyed by
        the OS]
        < iKitsune> so, fuck
        < iKitsune> now i have a $250 ticket for reckless driving

