        #8955 +(437)- [X]

        <RyMon> You see the new heatsinks on thinkgeek?
        <Crash> I have one right here... it's so cold against my skin,
        I could just put them all over myself and stay cool anywhere!
        <RyMon> There's no sink that disipates stupid, man.

