        #89806 +(-139)- [X]

        <Bug^> is it the fken law u cant sell piss on good friday?
        <Numloxx> Bug^ no, but jesus will cry if u do
        <Bug^> fuck jesus
        <Bug^> i'll nail that cunt to a stake if he complains
        <Numloxx> that'll make him cry too
        <Bug^> thats his problem
        <BenZor> lol

