        #8987 +(592)- [X]

        <Mick> bolsh... you are my favourite guy on this channel!
        <bolsh> same.
        <Mick> HAHA..I MEANT FAVOURITE TO FANTASISE AND WANK OVER!
        <bolsh> same.

