        #900639 +(790)- [X]

        (ndrj): anyone good with sound tech here?
        (ndrj): if i put a pair of cheap mp3 headphones in my PC i get
        lots of buzzing/electric noise, but if I put decent/expensive
        pair in i don't. what is it that removes this, what should I
        be looking for when I buy a pair? :P
        (decx): the sennheiser logo

