        #916519 +(2843)- [X]

        <Velkyr> Why is it when your wife or girlfriend gets pregnant,
        all her friends rub her belly and say "congratulations!"
        <Velkyr> But nobody rubs your dick and says "Good Job"?

