        #921395 +(1619)- [X]

        <Aussie> I was listening to some girls talking in a video
        store.
        <Aussie> And one of them was saying that she had failed her
        learners permit because she had used both hands to change
        gears.

