        #92706 +(969)- [X]

        <dySanGONE> i asked my mom to leave me some money so i could
        go to wendy's
        <dySanGONE> she left me $40
        <Nago> nice
        <yotta|w0rk> must have thought wendy was a cheap whore.

