        #936782 +(1096)- [X]

        <+Kilonum> DID I MENTION I WAS MOLESTED? I'M PRETTY SURE I
        DID, ONCE OR TWICE, BUT YOU DID NOT OFFER TO DISCUSS THE
        MATTER WITH ME. LET'S HAVE A NICE QUIET DINNER AND HAVE A
        FRANK DISCUSSION ABOUT MY MOTHER'S BOYFRIEND'S DONG AND HOW HE
        PUT IT IN MY MOUTH AND ASS NOW AND THEN. ANYWAY, I'M CLEARLY
        THE VICTIM HERE AND THAT'S WHY I DON'T SUCK DICK. HOPE YOU
        UNDERSTAND.
        <+Snickers> ... o.O
        <+Kilonum> woops
        <+Kilonum> wrong paste
        <+Wormdundee> when is that ever the right paste

