        #95138 +(139)- [X]

        <PopeCrunch> I'm trying to get funding for a series.
        <PopeCrunch> The Franklin Mint set of Presidential Dumps: Only
        49.95.
        <PopeCrunch> This month's special: The Lincoln 'Log'.

