        #953518 +(2966)- [X]

        <No_One> Damn my land mine collection is gone.
        <No_One> Also so is my shed
        <No_One> That's gonna be fun in the morning
        15 minutes later.
        <No_One> Fuck afk police pulled in
        <Dwarf> k
        <Dwarf> have fun
        10 minutes later.
        <No_One> Shiit
        <No_One> Someone broke into my shed
        <No_One> They won't do that again
        3 hours later.
        <No_One> Can I be charged with criminal negligence even if the
        said deceased person used bolt cutters to access something
        that killed them?
        <noregister> I doubt it
        <No_One> Good

