        #962270 +(0)- [X]

        <@peted> i get distracted by that a lot
        <@peted> sometimes, actually, a lot of the time, i just get
        distracted by my own thoughts
        < brzt> I think thats call ADHD?
        <@peted> do they?
        < brzt> I just said I think they do...
        <@peted> and i asked do they...
        <@peted> this instant replay brought to you by pepsi cola
        < brzt> See above.

