        #962787 +(283)- [X]

        <RoadJoe> I put the F in spelling
        <me-money-mix> i put the cum in company
        <We_are_Dad> I put the fun in funeral
        <GNAustin> I put the myself in killing myself

