        #965610 +(304)- [X]

        <_alph4_> cedra when are you coming to live with me
        <cedra> I can't
        <_alph4_> :(
        <cedra> Unless you live here in this country
        <_alph4_> i do not
        <_alph4_> i live in the democratic republic of trump
        <cedra> What state
        <_alph4_> denial
        <_alph4_> sometimes confusion

