        #965795 +(127)- [X]

        <sargeras000> I've been in one (1) house that had a urinal
        <thuban> whose house
        <sargeras000> don't recall
        <sargeras000> now that i think of it, it may have been a water
        fountain

