        #97072 +(246)- [X]

        < MrZippy> BBC: "The brains of thousands of mentally ill
        people were illegally removed for research, a report is
        expected to reveal."
        < MrZippy> Big surprise.
        < Leimy> research like what?
        < MrZippy> I dunno. Prolly to figure out why crazy people
        don't go stealing other people's brains?

