        #98039 +(181)- [X]

        <Tkil> chaos_ -- oh... and if you're a beginner... don't worry
        overmuch about efficiency.
        <billn> if I wanted efficency, I'd put bigger tires on my
        truck, so I could get the whole cat in one pass.

