        #98100 +(1603)- [X]

        <AleX> i guess this channel must be a center of activity; when
        i not rarondn an;sc;ln vialmnv,ma v,xznm f
        dlJFSMSMMMSMMSM:HHHFRRF
        <DerianX> Yes.
        <AleX> sorry, i stopped caring halfway through that sentnece

