        #99060 +(32038)- [X]

        t0rbad> so there i was in this hallway right
        BlackAdder> i believe i speak for all of us when i say...
        BlackAdder> WRONG BTICH
        BlackAdder> IM SICK OF YOU
        BlackAdder> AND YOUR LAME STORIES
        BlackAdder> NOBODY  HERE THINKS YOURE FUNNY
        BlackAdder> NOBODY HERE WANTS TO HEAR YOUR STORIES
        BlackAdder> IN FACT
        BlackAdder> IF YOU DIED RIGHT NOW
        BlackAdder> I  DON"T THINK NOBODY WOULD CARE
        BlackAdder> SO WHAT DO YOU SAY TO THAT FAG
        *** t0rbad sets mode: +b BlackAdder*!*@*.*
        *** BlackAdder has been kicked my t0rbad ( )
        t0rbad> so there i was in this hallway right
        CRCError> right
        heartless> Right.
        r3v> right

