        #9976 +(142)- [X]

        Nikki_afe > Russian biscuits are nice :)
        Snaar_afe > Nikki: hm, i can't remember anything special about
        them
        Snaar_afe > Nikki: i'm not sure if there is such thing as
        russian buscuits :-)
        Snaar_afe > maybe it's just a rebranded dry dogfood :-,
        oPless_afe > "russian biscuits" = potatos

